,star_score,spw,screens,view_count,like_count,dislike_count,sequel,budget,studio_score
0,0,0,250,3263576,3984,365,0,120000000,0.0
1,300,0,1550,6112267,16237,897,0,360000000,0.7307692309999999
2,0,0,450,2199723,5046,214,0,120000000,0.0
3,800,1,1950,7760461,42435,1946,0,680000000,0.834586466
4,0,1,2050,749234,1141,184,1,260000000,0.583333333
5,0,0,700,454636,873,78,0,200000000,0.4074074070000001
6,0,0,1850,162648,203,47,0,300000000,0.0
7,0,0,950,6664217,25147,1964,0,190000000,0.35897435899999997
8,0,0,2300,2621075,7985,510,1,500000000,0.0
9,0,0,1500,98892,181,36,0,710000000,0.4074074070000001
10,0,0,2000,10928173,35396,2599,0,270000000,0.263157895
11,0,0,900,6258812,7125,977,0,220000000,0.0
12,0,0,1000,8078171,36680,1614,0,280000000,0.37837837799999996
13,0,0,450,3720973,14538,893,0,110000000,0.35897435899999997
14,0,0,850,23330,54,9,0,130000000,0.0
15,0,0,350,1566214,2636,170,0,80000000,0.0
16,0,0,2500,9008239,39902,2554,0,330000000,0.26666666699999997
17,0,0,1150,7804999,16743,7616,0,150000000,0.263157895
18,0,0,975,23621,27,9,0,130000000,0.0
19,100,0,1500,12018454,51867,3977,0,380000000,1.054848967
20,200,0,1900,6565724,22631,1425,0,430000000,0.0
21,100,0,1600,16379266,48057,5972,0,350000000,0.958974359
22,0,0,1100,8809275,13025,6123,0,100000000,0.604066986
23,1000,0,3450,26251605,181805,14670,0,1200000000,0.563636364
24,0,0,3450,1733196,9227,287,0,1200000000,0.563636364
25,0,0,825,2174674,5353,767,0,100000000,0.0
26,0,0,550,1011495,2107,2209,0,95000000,0.291666667
27,0,0,2750,1006292,7681,479,0,370000000,1.18013468
28,0,0,1050,14003122,10900,3796,0,170000000,0.0
29,0,0,500,2812560,13612,329,0,90000000,0.37837837799999996
30,0,0,1300,8192068,19214,2670,1,210000000,0.23076923100000002
31,0,0,2100,10092711,35898,3009,0,400000000,0.423076923
32,0,0,2150,3517544,11207,1259,0,640000000,0.563636364
33,0,0,1400,8091198,48485,4155,0,320000000,0.44834308
34,0,0,625,3800297,6622,689,0,85000000,0.35897435899999997
35,0,0,1200,5424750,14762,2133,0,140000000,0.0
36,0,0,275,3617606,23830,434,0,65000000,0.0
37,800,0,3650,19265784,66672,14319,1,970000000,1.131701632
38,0,0,600,933334,1800,90,0,110000000,0.0
39,0,0,1150,6319847,20716,872,1,340000000,0.23076923100000002
40,250,0,2200,16695454,79294,6942,0,470000000,0.708791209
41,0,0,100,998402,484,199,0,57500000,0.0
42,0,0,700,5656900,20726,795,1,100000000,0.516483516
43,0,0,800,7522378,21190,3435,0,120000000,0.263157895
44,2100,1,4350,39412482,207039,21480,0,1450000000,0.563636364
45,0,1,3450,367215,2119,195,0,1200000000,0.563636364
46,0,0,1700,12245178,22865,4172,0,390000000,1.037878788
47,0,0,3450,20938498,482826,62679,0,1200000000,0.563636364
48,600,0,3000,21618964,74795,11599,0,610000000,1.131701632
49,500,1,2700,15820209,83715,14078,0,1380000000,0.4074074070000001
50,800,1,2350,17485794,97169,4351,0,730000000,0.571428571
51,0,0,1000,6115861,25578,1086,0,200000000,1.073260073
52,0,0,2650,17585167,54244,20396,0,550000000,0.423076923
53,0,0,2400,18276459,66445,8412,0,320000000,0.37837837799999996
54,100,0,1950,15955468,51558,6140,0,530000000,1.591000503
55,0,0,1200,11409562,79742,2299,0,230000000,0.4
56,0,0,1700,10061227,36400,3620,1,310000000,0.604066986
57,0,0,1000,11550527,48693,1906,0,290000000,0.8
58,0,0,275,4784626,16654,1045,0,240000000,0.5
59,100,1,3900,30516105,382947,11496,0,1100000000,0.878378378
60,0,0,1750,8973144,21650,5366,0,630000000,0.0
61,0,0,450,7114338,45419,23378,0,180000000,0.0
62,0,0,875,9796626,31979,2544,0,110000000,0.185185185
63,0,0,475,16586594,16157,6430,0,42500000,0.291666667
64,800,1,2950,32355164,384170,17561,0,1030000000,0.5
65,300,1,2850,18076112,65592,13985,0,980000000,1.054848967
66,0,0,3450,2127591,15350,543,0,1200000000,0.563636364
67,100,0,1450,3813779,11500,2224,1,450000000,0.914529915
68,0,0,1050,3991436,15683,822,1,160000000,0.263157895
69,200,0,2250,19551770,96224,5485,1,410000000,0.291666667
70,1000,0,1150,16463425,96000,8500,0,460000000,1.963970588
71,0,0,1250,10460235,54372,1890,1,330000000,0.0
72,450,0,2150,698643,4049,1910,0,640000000,0.563636364
73,0,0,2000,28965423,44311,7671,0,140000000,0.263157895
74,1350,1,4250,59373160,355755,35018,0,1320000000,1.296296296
75,0,0,600,71048,99,119,0,35000000,0.0
76,0,0,350,115892,209,24,0,22500000,0.0
77,100,0,2850,6712284,11574,1848,0,540000000,0.7589743589743589
78,0,0,1600,9962652,18940,3171,0,190000000,0.0
79,0,0,400,136847,218,91,0,50000000,0.26666666666666666
80,0,0,450,1132294,1397,189,0,70000000,0.0
81,800,1,2450,9024869,30368,2725,0,750000000,1.3345864661654134
82,60,1,1150,2827032,5998,876,0,210000000,0.0
83,35,0,900,2623939,8919,602,0,240000000,0.2307692307692308
84,0,0,1500,3652808,5100,1110,0,120000000,0.7192874692874693
85,0,0,325,1044347,1527,120,0,60000000,0.2916666666666667
86,65,0,1600,4138403,12491,1336,0,490000000,0.9589743589743588
87,0,0,650,7089203,47850,23114,0,300000000,0.0
88,300,0,2350,8303554,19117,3418,0,500000000,0.2631578947368421
89,425,0,1700,680658,1074,115,0,290000000,0.35897435897435903
90,40,0,1050,230,0,0,0,230000000,0.2631578947368421
91,0,0,1450,18729,54,2,1,180000000,0.0
92,35,0,775,4521171,10126,820,0,140000000,0.5636363636363636
93,0,0,1150,2537295,2235,1079,0,110000000,0.0
94,0,0,1000,6679048,16686,1729,1,180000000,0.6446886446886446
95,0,0,575,2971868,5060,921,0,75000000,0.0
96,0,0,725,5598851,4200,951,0,90000000,0.2857142857142857
97,100,0,1200,3541357,10315,922,0,350000000,0.5636363636363636
98,0,0,155,67767,154,16,0,50000000,0.4
99,0,0,1100,1608825,2853,291,0,140000000,0.2916666666666667
100,0,0,2000,19746629,25365,7732,0,230000000,0.2631578947368421
101,0,0,190,806589,2505,86,0,57500000,0.0
102,0,0,250,892034,3513,151,0,65000000,0.2916666666666667
103,50,0,2100,1203175,1457,337,0,370000000,0.7192874692874693
104,0,0,150,516602,1011,215,0,32500000,0.0
105,0,0,300,290283,255,98,0,40000000,0.0
106,800,0,3100,6655159,25071,2240,1,790000000,0.875
107,0,0,1250,7902916,10497,3400,0,150000000,0.0
108,105,0,1300,6758779,20704,1692,0,420000000,0.8
109,300,0,2550,6705681,15400,5954,0,1180000000,0.6640926640926641
110,0,0,2150,9676376,25779,1605,1,390000000,1.0732600732600732
111,35,0,1350,4963991,11918,1250,1,290000000,0.1851851851851852
112,590,0,2300,5463327,20470,2917,0,830000000,0.5555555555555556
113,80,0,1750,5700816,24322,1351,0,400000000,0.7192874692874693
114,400,0,2500,20000000,100000,8000,1,650000000,0.4074074074074074
115,0,0,450,1115722,1094,225,0,60000000,0.0
116,0,0,200,907033,1451,154,0,25000000,0.0
117,20,0,975,2074106,2975,349,0,200000000,0.3783783783783784
118,0,0,525,1509656,3220,884,0,110000000,0.0
119,0,0,3950,19323876,53315,6239,0,1950000000,0.6764705882352942
120,25,0,500,927731,2117,365,0,160000000,0.2631578947368421
121,0,0,525,108963,211,30,0,110000000,0.0
122,2125,1,4100,40000000,300000,15000,0,1250000000,0.35897435897435903
123,0,0,250,2247284,5024,332,0,80000000,0.2857142857142857
124,800,0,2250,9319239,20429,1977,0,620000000,0.2916666666666667
125,30,0,700,2884332,6520,1181,0,290000000,0.5555555555555556
126,70,0,3650,5171399,15966,2927,0,970000000,1.1317016317016315
127,900,1,3400,12624795,59954,4612,0,1120000000,1.0548489666136724
128,25,0,575,7747958,43941,1356,0,85000000,0.2916666666666667
129,100,0,2600,311752,1631,504,0,720000000,1.18013468013468
130,240,0,3200,8468639,24009,4566,1,1080000000,0.8135198135198135
131,0,0,2100,7533619,22670,4677,0,360000000,0.6530920060331825
132,0,0,1250,306534,647,48,0,320000000,0.4074074074074074
133,0,0,500,7486393,27080,19285,1,230000000,0.0
134,0,0,1700,6646148,32661,3249,0,160000000,0.4090909090909091
135,0,0,850,1980133,1542,817,0,130000000,0.0
136,0,0,2150,1453696,2645,550,0,640000000,0.5636363636363636
137,800,1,3100,2569839,8432,1373,0,910000000,0.0
138,40,1,675,4216695,7933,555,0,170000000,0.2727272727272727
139,40,0,1650,8431865,20320,3621,0,280000000,0.0
140,20,0,1400,8432968,36054,2765,1,220000000,0.2916666666666667
141,250,0,2500,13631102,48871,5173,0,690000000,1.340563252327958
142,0,0,900,2475666,6012,1262,0,100000000,0.0
143,0,0,550,1229662,1012,105,0,60000000,0.0
144,2100,1,4200,23905979,109586,17135,0,1800000000,0.7117117117117118
145,0,0,2300,2450147,5972,387,0,610000000,0.6631578947368422
146,0,0,375,787164,3878,385,0,90000000,0.0
147,300,0,2050,985629,3870,565,0,870000000,1.18013468013468
148,0,0,2600,28223460,46870,11506,1,200000000,0.2631578947368421
149,450,1,2700,14278031,58402,7417,0,1450000000,0.9423076923076924
150,1400,1,3150,30123996,160650,25428,0,1650000000,0.6875
151,20,0,1050,357735,236,60,0,170000000,0.0
152,20,0,1250,2454194,2455,614,0,370000000,0.2727272727272727
153,0,0,1400,3789335,5409,886,0,210000000,0.2631578947368421
154,0,0,1100,9409,35,5,0,260000000,0.4
155,25,0,250,6255056,4644,1270,0,50000000,0.0
156,0,0,75,167751,116,48,0,15000000,0.0
157,0,0,10,222667,114,67,0,8000000,0.0
158,2100,1,3700,1486572,5076,656,0,1020000000,0.758974358974359
159,20,0,260,450139,1748,36,0,120000000,0.0
160,0,0,275,4326820,9795,1138,0,45000000,0.0
161,100,0,1300,2829271,7322,1019,0,260000000,0.9621848739495799
162,0,0,400,363522,1098,117,0,110000000,0.0
163,0,0,275,257136,2051,132,0,60000000,0.0
164,590,0,2700,3112667,7729,1127,0,510000000,0.5636363636363636
165,0,0,1200,374239,987,121,0,160000000,0.0
166,0,0,175,4159,5,0,0,20000000,0.0
167,0,0,12,4880752,12870,1656,0,2000000,0.0
168,0,0,750,1122518,3826,236,0,250000000,1.18013468013468
169,0,0,1,12830,0,6,0,8500000,0.0
170,0,0,100,7,1,0,0,17500000,0.0
171,100,0,1900,4900312,9187,1505,0,430000000,0.4230769230769231
172,0,0,1700,4880752,12870,1656,0,290000000,0.0
173,30,0,800,4354284,54307,1747,0,230000000,0.5773809523809523
174,0,0,850,1911352,4026,610,0,170000000,0.7307692307692308
175,35,0,1100,3073601,5284,1116,0,220000000,0.5636363636363636
176,0,0,225,1797,10,0,0,17500000,0.0
177,0,0,150,50000,350,90,0,47500000,0.0
178,0,0,150,720011,1736,42,0,47500000,0.0
179,0,0,900,1682418,1849,473,0,160000000,0.4090909090909091
180,0,0,100,1592572,30764,764,0,40000000,0.0
181,0,0,2300,88359,93,27,1,190000000,1.0064102564102564
182,25,0,1550,2653472,3770,520,0,39000000,0.35897435897435903
183,30,0,900,1634793,3226,306,0,150000000,0.0
184,0,0,275,608,1,0,0,90000000,0.0
185,15,0,1000,744114,1264,198,0,280000000,0.1851851851851852
186,0,0,275,949646,1088,110,0,60000000,0.0
187,400,0,2400,6021817,14710,2435,0,410000000,0.4230769230769231
188,65,0,1500,3604184,11196,771,1,360000000,0.2631578947368421
189,100,0,1900,9776096,30225,2730,1,450000000,1.8566052683699743
190,0,0,125,1094796,1018,268,0,22500000,0.35897435897435903
191,0,0,375,102632,205,26,0,70000000,0.0
192,20,0,1250,2727912,4248,703,0,240000000,0.29411764705882354
193,0,0,1600,365137,242,65,0,270000000,0.0
194,0,0,625,526195,941,219,0,150000000,0.3333333333333333
195,0,0,625,1682425,1228,258,0,110000000,0.35897435897435903
196,0,0,400,565620,2197,87,0,55000000,0.0
197,0,0,300,11017,33,4,0,47500000,0.0
198,0,0,275,64139,86,31,0,45000000,0.0
199,0,0,625,134845,534,46,0,110000000,0.3783783783783784
200,0,0,50,93032,157,28,0,40000000,0.0
201,0,0,900,678049,459,46,0,140000000,0.0
202,0,0,175,443216,1184,43,0,55000000,0.2916666666666667
203,0,0,800,621617,532,119,0,60000000,0.0
204,0,0,200,13340,14,5,0,50000000,0.0
205,0,0,1050,455039,1215,342,0,150000000,0.0
206,0,0,275,1497852,2193,368,0,90000000,0.0
207,0,0,300,690029,175,138,1,42500000,0.0
208,70,0,2200,521547,2428,224,0,250000000,0.7727272727272727
209,0,0,1250,248893,684,121,0,260000000,0.2307692307692308
210,30,0,450,300004,550,39,0,90000000,0.7192874692874693
211,0,0,600,1272002,1061,251,0,65000000,1.0064102564102564
212,0,0,450,113847,0,0,0,75000000,0.4074074074074074
213,800,0,3300,6938721,13908,2033,0,860000000,0.6307692307692309
214,0,0,950,2490008,3133,606,0,180000000,0.0
215,0,0,600,466683,453,154,0,55000000,0.0
216,100,0,2800,1214558,0,0,0,640000000,0.5635635635635636
217,100,0,2500,5878650,18426,1310,0,390000000,0.4230769230769231
218,0,0,1250,3244656,4503,1267,0,260000000,0.2307692307692308
219,0,0,875,4155759,2564,528,0,28200000,0.35897435897435903
220,400,0,1950,7891376,17781,2448,0,330000000,0.6764705882352942
221,0,0,1800,15829871,16514,5629,1,150000000,0.2631578947368421
222,0,0,10,5609,7,1,0,4500000,0.0
223,0,0,30,35429,29,17,0,5000000,0.0
224,0,0,450,32155,65,14,0,70000000,0.0
225,0,0,600,224483,683,27,0,100000000,0.4074074074074074
226,2125,1,3800,2310353,4806,878,0,1400000000,1.18013468013468
227,800,0,2850,280011,1197,506,0,810000000,0.4
228,800,1,3500,9488075,21090,3208,1,1050000000,0.7307692307692308
229,0,0,150,592519,1451,61,0,37500000,0.0
230,0,0,150,867613,1338,292,0,37500000,0.0
231,0,0,1250,5053237,15830,1154,0,210000000,0.5636363636363636
232,0,0,175,33689,10,28,0,35000000,0.4074074074074074
233,0,0,1100,30783,20,1,0,280000000,0.4
234,50,0,1950,136340,451,28,0,470000000,0.4074074074074074
235,0,0,1900,6731724,27540,1752,0,380000000,0.875
236,0,0,1300,3694894,6521,1744,0,250000000,0.2631578947368421
237,100,0,875,6410965,13170,2824,0,290000000,0.3783783783783784
238,0,0,1900,4179113,8637,1421,0,320000000,0.5636363636363636
239,0,0,1150,341496,1006,57,0,230000000,0.4074074074074074
240,0,0,500,1079767,1489,255,1,85000000,0.0
241,0,0,100,2114,4,3,0,35000000,0.0
242,0,0,1150,817621,1046,281,0,120000000,0.0
243,0,0,125,115952,95,22,0,20000000,0.0
244,0,0,450,468754,802,324,0,70000000,0.0
245,500,1,3250,3874679,11476,1382,0,1600000000,0.3783783783783784
246,250,1,1250,253244,808,46,0,480000000,0.6801346801346801
247,0,0,350,3014703,4527,1160,0,60000000,0.0
248,0,0,450,1349362,895,119,0,75000000,0.0
249,0,0,825,54476,67,12,0,100000000,0.0
250,0,0,1000,1720744,1941,478,1,110000000,0.0
251,0,0,525,1357326,1455,195,0,77500000,0.0
252,1070,1,3850,7356447,39048,10738,0,1500000000,0.6875
253,0,0,600,71049,99,119,0,35000000,0.0
254,0,0,65,1241329,6310,69,0,17500000,0.0
255,0,0,1250,379444,606,56,0,250000000,0.0
256,0,0,825,1293381,2304,408,0,180000000,0.4545454545454545
257,0,0,150,2610951,9473,701,0,100000000,0.0
258,0,0,12,26882,14,5,0,20000000,0.0
259,800,0,1800,2717960,4832,636,0,410000000,0.5714285714285714
260,0,0,1800,511237,741,168,1,410000000,0.5714285714285714
261,450,0,2300,3622695,8457,1345,0,400000000,0.5636363636363636
262,0,0,15,402723,369,118,0,35000000,0.2916666666666667
263,100,0,1650,5552426,7273,1189,0,570000000,0.35897435897435903
264,0,0,150,502548,1324,103,0,25000000,0.0
265,85,0,1800,3005821,7061,537,0,390000000,0.6764705882352942
266,0,0,350,678316,892,98,0,55000000,0.0
267,0,0,40,103404,161,36,0,7500000,0.0
268,800,0,3350,15371988,21012,4383,0,930000000,0.35897435897435903
269,0,0,45,17728,87,7,0,3500000,0.0
270,0,0,350,115892,209,24,0,22500000,0.0
271,0,0,575,545475,553,129,0,70000000,0.0
272,0,0,300,1108325,4457,314,0,42500000,0.0
273,0,0,1200,3888,39,1,0,250000000,0.2916666666666667
274,1485,1,3600,50000000,350000,15000,0,1220000000,0.9074074074074074
275,0,0,3350,4461082,20134,1768,0,930000000,0.35897435897435903
276,0,0,350,2122300,3922,365,0,65000000,0.2857142857142857
277,0,0,225,9178199,60833,3220,0,22500000,0.0
278,0,0,1400,23621157,122071,11892,0,270000000,1.0548489666136724
279,0,0,650,5387244,39793,2427,0,80000000,0.0
280,500,1,2550,30526165,182586,18040,0,890000000,0.7777777777777778
281,1000,1,3400,62415591,490833,53060,0,1270000000,1.2430555555555556
282,800,0,3300,3477170,13584,1035,1,830000000,0.3783783783783784
283,0,0,525,6374,51,12,1,120000000,0.0
284,0,0,650,516733,1960,186,0,85000000,0.8
285,0,0,1100,11361425,72419,5486,0,160000000,0.6764705882352942
286,0,0,500,1987933,4944,218,0,75000000,0.0
287,350,0,2100,17392305,95659,10568,0,610000000,1.3371212121212122
288,0,0,2200,23462819,105117,6073,1,260000000,0.2307692307692308
289,400,0,2800,32847581,210619,17223,0,440000000,1.0548489666136724
290,0,0,750,653718,2983,755,0,85000000,0.0
291,0,0,300,5349172,36725,1812,0,50000000,0.5164835164835165
292,0,0,1600,191322,527,90,0,300000000,0.0
293,0,0,1500,19607266,128936,8141,0,290000000,0.3783783783783784
294,0,0,325,2116520,2664,217,0,57500000,0.0
295,800,0,2000,6159839,45872,1336,0,330000000,1.3021978021978022
296,0,0,300,2235552,11284,330,0,37500000,0.0
297,0,0,1250,32589052,141152,10528,0,190000000,0.3409090909090909
298,0,0,1450,13722119,56367,9027,0,240000000,0.2631578947368421
299,0,0,65,85768,182,26,0,4000000,0.0
300,0,0,650,8605678,35481,1663,0,85000000,0.0
301,0,0,750,127135,1248,149,0,220000000,0.5636363636363636
302,0,0,1450,10026091,47516,3751,1,360000000,0.6589743589743591
303,100,0,2400,34359663,251420,30667,0,500000000,0.4230769230769231
304,0,0,200,10605454,43943,36746,0,90000000,0.0
305,0,0,1050,16498282,128185,3613,0,230000000,0.2631578947368421
306,0,0,1950,28722894,395496,12795,0,390000000,0.0
307,100,0,1800,37034885,188624,18851,0,470000000,0.2631578947368421
308,0,0,750,11412847,78876,3764,0,130000000,0.0
309,0,0,700,7295370,25131,2829,0,150000000,0.0
310,2100,1,4400,25817230,256500,29811,0,1350000000,0.0
311,0,0,725,6117990,21936,2830,0,140000000,0.4
312,0,0,1200,9570940,37791,2969,0,370000000,0.4
313,0,0,1350,5747689,31677,1997,0,280000000,0.0
314,300,0,1750,8819593,41959,5374,0,1310000000,0.0
315,0,0,500,8208640,28557,5446,0,70000000,0.8500000000000001
316,0,0,2900,23463518,134857,14340,0,410000000,0.35897435897435903
317,0,0,625,84576,695,25,0,9500000,0.0
318,0,0,875,7985464,66767,4228,0,120000000,0.0
319,100,0,2300,19466731,65447,13905,0,650000000,0.0
320,1000,0,3200,19499578,183211,14030,0,1190000000,0.6875
321,800,1,2950,39769856,361559,19207,0,750000000,0.8630952380952381
322,0,0,100,3064758,22588,261,0,22500000,0.0
323,0,0,95,5168960,36254,1685,1,47500000,0.0
324,0,0,1000,12389007,85377,4678,0,200000000,0.0
325,100,0,1900,15256542,99179,7747,0,670000000,0.3783783783783784
326,0,0,950,11990689,82069,4591,0,100000000,0.0
327,0,0,950,10930,40,10,0,100000000,0.2631578947368421
328,0,0,800,2516690,11022,1977,0,210000000,0.5636363636363636
329,800,0,2850,17481509,103848,5332,0,900000000,0.2631578947368421
330,0,0,1300,14144314,92915,3743,0,250000000,1.0732600732600734
331,0,0,1300,14035062,89909,4843,0,270000000,0.0
332,0,0,1150,11438287,46211,2491,0,210000000,0.0
333,0,0,1550,12098987,105999,8638,0,280000000,0.2631578947368421
334,100,0,1250,8564997,55676,3010,0,300000000,0.2916666666666667
335,0,0,725,5507305,27821,2741,0,110000000,0.0
336,0,0,2000,16794644,159031,6313,0,310000000,0.2631578947368421
337,0,0,1100,72834,288,104,0,290000000,0.35897435897435903
338,0,0,1150,11064212,85078,13585,0,180000000,0.0
339,400,1,3500,41682696,274030,34434,1,630000000,1.1511056511056508
340,100,0,1550,7459738,70433,4385,0,310000000,0.2631578947368421
341,1350,1,1750,22593045,173103,15227,0,450000000,0.8888888888888888
342,800,1,3300,39285140,294777,28967,1,1420000000,0.2307692307692308
343,100,0,1100,18440258,153893,7175,0,290000000,1.3639705882352942
344,0,0,975,8174730,69265,2287,0,130000000,0.0
345,0,0,900,13082376,72000,15000,0,170000000,0.0
346,0,0,1300,19343737,47684,9065,1,90000000,0.0
347,0,0,1200,12316919,99211,6214,0,200000000,0.2631578947368421
348,0,0,1000,6058411,13847,4010,1,85000000,0.0
349,0,0,300,19307,56,14,0,27500000,0.0
350,0,0,1050,8708028,25490,6548,0,110000000,0.0
351,0,0,1550,21108839,270142,30395,0,400000000,0.0
352,0,0,1500,19150314,91303,3350,1,290000000,0.5555555555555556
353,0,0,250,3263587,3984,365,0,120000000,0.0
354,2100,1,4600,79347940,1072160,87601,1,2100000000,0.5636363636363636
