,gross
0,9000000
1,558600000
2,22200000
3,1660300000
4,324000000
5,149500000
6,247800000
7,111900000
8,376100000
9,234200000
10,300800000
11,41200000
12,903600000
13,37400000
14,47150000
15,5200000
16,450700000
17,85400000
18,194700000
19,962700000
20,306700000
21,713700000
22,43380000
23,1169700000
24,1169700000
25,26800000
26,12500000
27,1059400000
28,48000000
29,50600000
30,214100000
31,427300000
32,834000000
33,337100000
34,52900000
35,90300000
36,37000000
37,1505500000
38,40900000
39,261600000
40,800000000
41,1700000
42,94200000
43,51300000
44,4141400000
45,1169700000
46,198900000
47,1169700000
48,947100000
49,749300000
50,1730700000
51,391500000
52,427800000
53,365700000
54,423700000
55,187000000
56,346200000
57,903500000
58,19800000
59,1573200000
60,109300000
61,176000000
62,65400000
63,61700000
64,1117300000
65,1476600000
66,1169700000
67,144100000
68,56200000
69,442000000
70,918200000
71,451000000
72,834000000
73,135700000
74,4952500000
75,3100000
76,5100000
77,469500000
78,250700000
79,4400000
80,5700000
81,1095300000
82,148200000
83,46600000
84,128600000
85,15200000
86,291000000
87,166500000
88,476800000
89,673700000
90,776100000
91,93600000
92,399100000
93,84800000
94,421700000
95,30900000
96,174600000
97,345900000
98,119800000
99,119800000
100,251900000
101,63100000
102,74300000
103,256900000
104,4200000
105,4800000
106,1172700000
107,35100000
108,1053100000
109,303600000
110,1978600000
111,120700000
112,1006200000
113,404800000
114,1407300000
115,15400000
116,2850000
117,86500000
118,32000000
119,7089900000
120,16200000
121,32000000
122,4221300000
123,52500000
124,938500000
125,74100000
126,1505500000
127,972900000
128,172400000
129,712400000
130,1316600000
131,433600000
132,327800000
133,169800000
134,584000000
135,81900000
136,834000000
137,985300000
138,422000000
139,311200000
140,834500000
141,543800000
142,81200000
143,10200000
144,2675400000
145,1643800000
146,29200000
147,949200000
148,605500000
149,2554100000
150,1948100000
151,38300000
152,335800000
153,517900000
154,19100000
155,5200000
156,900000
157,70000
158,1486400000
159,112000000
160,3000000
161,489700000
162,11800000
163,3600000
164,983700000
165,78400000
166,2000000
167,337500
168,379500000
169,5800000
170,675000
171,511800000
172,142100000
173,816800000
174,77200000
175,187900000
176,5900000
177,11100000
178,11100000
179,24300000
180,3900000
181,627500000
182,62300000
183,48200000
184,9700000
185,94500000
186,7000000
187,718200000
188,459700000
189,1377100000
190,2600000
191,4200000
192,53000000
193,118700000
194,21300000
195,18600000
196,8900000
197,2325000
198,2275000
199,113600000
200,975000
201,22900000
202,4550000
203,47100000
204,2250000
205,129600000
206,7500000
207,3550000
208,685300000
209,161700000
210,89900000
211,19400000
212,90500000
213,1517600000
214,143200000
215,18100000
216,710000000
217,1312800000
218,161700000
219,40600000
220,968400000
221,310700000
222,100000
223,425000
224,7600000
225,44800000
226,2835200000
227,878700000
228,1914800000
229,2700000
230,2700000
231,473200000
232,48900000
233,845700000
234,319000000
235,737200000
236,197200000
237,378000000
238,341300000
239,335400000
240,14900000
241,1550000
242,25200000
243,1550000
244,5700000
245,1919600000
246,655200000
247,2700000
248,19100000
249,18800000
250,24500000
251,11100000
252,2408300000
253,3100000
254,900000
255,134000000
256,34300000
257,24900000
258,275000
259,246300000
260,246300000
261,398000000
262,65000
263,295800000
264,1400000
265,219400000
266,7700000
267,7900000
268,789300000
269,3325000
270,5100000
271,10900000
272,3900000
273,1113400000
274,4487400000
275,789300000
276,83400000
277,22700000
278,297500000
279,7200000
280,1199700000
281,1766400000
282,1495800000
283,142800000
284,13400000
285,280000000
286,11200000
287,288200000
288,300300000
289,1585700000
290,13900000
291,35300000
292,31900000
293,344900000
294,14800000
295,497500000
296,37100000
297,277700000
298,93200000
299,875000
300,16200000
301,127600000
302,138300000
303,723600000
304,98300000
305,776100000
306,541800000
307,299400000
308,30600000
309,98500000
310,1563900000
311,16700000
312,416100000
313,95000000
314,693100000
315,215600000
316,438200000
317,11800000
318,60700000
319,710100000
320,801100000
321,1680800000
322,29600000
323,29600000
324,440800000
325,229300000
326,126200000
327,191800000
328,4500000
329,846700000
330,542300000
331,150000000
332,136800000
333,191800000
334,148600000
335,20500000
336,120300000
337,4221300000
338,84500000
339,1693900000
340,80700000
341,810000000
342,2641800000
343,357200000
344,194700000
345,210300000
346,63600000
347,423600000
348,33100000
349,17600000
350,23900000
351,119600000
352,1000900000
353,9000000
354,4284300000
