,Title,Director,Cast,Genre,Studio,link,screens,budget,release_date,gross,boi_link,isComedy,isDrama,isThriller,isAction,isRomance,isBiopic,isHorror,isCrime,isPeriod,isWar,isChildren,isPolitical,isSports,isAdult,isMusical,isAdventure,isSocial,isNeo-noir,isPatriotic,isDark,studio_score,director_score,star_score,spw
0,Haraamkhor,Shlok Sharma,"Nawazuddin Siddiqui , Shweta Tripathi",Comedy/Crime,Sikhya Entertainment Pvt. Ltd.|,https://en.wikipedia.org/wiki/Haraamkhor,225,22500000,['2017-01-13'],22700000,https://boxofficeindia.com/movie.php?movieid=3449,1,0,0,0,0,0,0,1,0,0,0,0,0,0,0,0,0,0,0,0,0.0,0.0,25.0,0
1,Ok Jaanu,Shaad Ali,"Aditya Roy Kapur , Shraddha Kapoor",Romance/Drama,Dharma Productions Pvt. Ltd.|Fox Star Studio India Pvt. Ltd.|Madras Talkies|,https://en.wikipedia.org/wiki/Ok_Jaanu,1400,270000000,['2017-01-13'],297500000,https://boxofficeindia.com/movie.php?movieid=3448,0,1,0,0,1,0,0,0,0,0,0,0,0,0,0,0,0,0,0,0,1.0548489666136724,0.0,0.0,0
2,Coffee with D,Vishal Mishra,"Sunil Grover , Zakir Hussain",Comedy/crime,Apex Entertainment|,https://en.wikipedia.org/wiki/Coffee_with_D,650,80000000,['2017-01-20'],7200000,https://boxofficeindia.com/movie.php?movieid=3456,1,0,0,0,0,0,0,1,0,0,0,0,0,0,0,0,0,0,0,0,0.0,0.0,0.0,0
3,Kaabil,Sanjay Gupta,"Hrithik Roshan , Yami Gautam",Action/thriller,Filmkraft Pvt. Ltd.|,https://en.wikipedia.org/wiki/Kaabil,2550,890000000,['2017-01-25'],1199700000,https://boxofficeindia.com/movie.php?movieid=3459,0,0,1,1,0,0,0,0,0,0,0,0,0,0,0,0,0,0,0,0,0.7777777777777778,0.0,500.0,1
4,Raees,Rahul Dholakia,"Shah Rukh Khan, Mahira Khan , Nawazuddin Siddiqui",Crime/action,Excel Entertainment|Red Chillies Entertainment|,https://en.wikipedia.org/wiki/Raees_(film),3400,1270000000,['2017-01-25'],1766400000,https://boxofficeindia.com/movie.php?movieid=3460,0,0,0,1,0,0,0,1,0,0,0,0,0,0,0,0,0,0,0,0,1.2430555555555556,0.0,1025.0,1
5,Jolly LLB 2,Subhash Kapoor,"Akshay Kumar, Huma Qureshi , Saurabh Shukla",Drama,Fox Star Studio India Pvt. Ltd.|,https://en.wikipedia.org/wiki/Jolly_LLB_2,3300,830000000,['2017-02-10'],1495800000,https://boxofficeindia.com/movie.php?movieid=3464,0,1,0,0,0,0,0,0,0,0,0,0,0,0,0,0,0,0,0,0,0.3783783783783784,0.0,800.0,0
6,Hind Ka Napak Ko Jawab: MSG Lion Heart 2,Gurmeet Ram Rahim Singh & Honeypreet Insan,"Gurmeet Ram Rahim Singh, Honeypreet Insan",Action/drama,Hakikat Entertainment Pvt. Ltd.|,https://en.wikipedia.org/wiki/Hind_Ka_Napak_Ko_Jawab:_MSG_Lion_Heart_2,525,120000000,['2017-02-10'],142800000,https://boxofficeindia.com/movie.php?movieid=3465,0,1,0,1,0,0,0,0,0,0,0,0,0,0,0,0,0,0,0,0,0.0,0.0,0.0,0
7,Runningshaadi.com,Amit Roy,"Taapsee Pannu, Amit Sadh , Arsh Bajwa",Comedy,Crouching Tiger Motion Pictures|Rising Suns Films Pvt. Ltd.|,https://en.wikipedia.org/wiki/Runningshaadi.com,650,85000000,['2017-02-17'],13400000,https://boxofficeindia.com/movie.php?movieid=3470,1,0,0,0,0,0,0,0,0,0,0,0,0,0,0,0,0,0,0,0,0.8,0.0,0.0,0
8,The Ghazi Attack,Sankalp Reddy,"Rana Daggubati, Taapsee Pannu, Kay Kay Menon , Atul Kulkarni",Action,Dharma Productions Pvt. Ltd.|Matinee Entertainment|P.V.P. Cinema|,https://en.wikipedia.org/wiki/The_Ghazi_Attack_(film),1100,160000000,['2017-02-17'],280000000,https://boxofficeindia.com/movie.php?movieid=3468,0,0,0,1,0,0,0,0,0,0,0,0,0,0,0,0,0,0,0,0,0.6764705882352942,0.0,0.0,0
9,Irada,Aparnaa Singh,"Naseeruddin Shah, Arshad Warsi, Sharad Kelkar , Divya Dutta",Thriller/drama,Irada Entertainment|,https://en.wikipedia.org/wiki/Irada_(2017_film),500,75000000,['2017-02-17'],11200000,https://boxofficeindia.com/movie.php?movieid=3469,0,1,1,0,0,0,0,0,0,0,0,0,0,0,0,0,0,0,0,0,0.0,0.0,20.0,0
10,Rangoon,Vishal Bhardwaj,"Kangana Ranaut, Shahid Kapoor , Saif Ali Khan",War/drama,Nadiadwala Grandson Entertainment|Viacom 18 Motion Pictures|Vishal Bhardwaj Pictures|,https://en.wikipedia.org/wiki/Rangoon_(2017_Hindi_film),2100,610000000,['2017-02-24'],288200000,https://boxofficeindia.com/movie.php?movieid=3471,0,1,0,0,0,0,0,0,0,1,0,0,0,0,0,0,0,0,0,0,1.3371212121212122,0.0,350.0,0
11,Wedding Anniversary,Shekhar S Jha,"Nana Patekar, Mahie Gill, Priyanshu Chatterjee , Shruti Marathe",Romance/thriller,V.K. Productions|,https://en.wikipedia.org/wiki/Wedding_Anniversary_(2017_film),375,--,['2017-02-24'],2525000,https://boxofficeindia.com/movie.php?movieid=3474,0,0,1,0,1,0,0,0,0,0,0,0,0,0,0,0,0,0,0,0,0.0,0.0,0.0,0
12,Mona Darling,Shashi Sudigala,"Anshuman Jha, Divya Menon, Suzanna Mukherjee, Sanjay Suri",Thriller,First Ray Films|Puja Entertainment Ltd.|,https://en.wikipedia.org/wiki/Mona_Darling,225,--,[24 February 2017],1325000,https://boxofficeindia.com/movie.php?movieid=3473,0,0,1,0,0,0,0,0,0,0,0,0,0,0,0,0,0,0,0,0,0.1851851851851852,0.0,0.0,0
13,Commando 2,Deven Bhojani,"Vidyut Jammwal, Adah Sharma , Esha Gupta",Action,Pen India Pvt. Ltd.|Reliance Entertainment|Sunshine Pictures Ltd.|,https://en.wikipedia.org/wiki/Commando_2,2200,260000000,['2017-03-03'],300300000,https://boxofficeindia.com/movie.php?movieid=3479,0,0,0,1,0,0,0,0,0,0,0,0,0,0,0,0,0,0,0,0,0.2307692307692308,0.0,0.0,0
14,Jeena Isi Ka Naam Hai,Keshhav Panneriy,"Arbaaz Khan, Ashutosh Rana , Himansh Kohli",Romance/drama,Bibia Films Pvt. Ltd.|,https://en.wikipedia.org/wiki/Jeena_isi_Ka_Naam_Hai_(film),400,--,['2017-03-03'],3150000,https://boxofficeindia.com/movie.php?movieid=3478,0,1,0,0,1,0,0,0,0,0,0,0,0,0,0,0,0,0,0,0,0.0,0.0,0.0,0
15,Badrinath Ki Dulhania,Shashank Khaitan,"Varun Dhawan , Alia Bhatt",Romance/comedy,Dharma Productions Pvt. Ltd.|Fox Star Studio India Pvt. Ltd.|,https://en.wikipedia.org/wiki/Badrinath_Ki_Dulhania,2800,440000000,['2017-03-10'],1585700000,https://boxofficeindia.com/movie.php?movieid=3480,1,0,0,0,1,0,0,0,0,0,0,0,0,0,0,0,0,0,0,0,1.0548489666136724,0.0,400.0,0
16,Aa Gaya Hero,Dipankar Senapati,"Govinda, Ashutosh Rana , Murali Sharma",Action/comedy,Mangal Tara TV & Films|,https://en.wikipedia.org/wiki/Aa_Gaya_Hero,750,85000000,['2017-03-17'],13900000,https://boxofficeindia.com/movie.php?movieid=3487,1,0,0,1,0,0,0,0,0,0,0,0,0,0,0,0,0,0,0,0,0.0,0.0,0.0,0
17,Trapped,Vikramaditya Motwane,"Rajkummar Rao, Geetanjali Thapa , Khushboo Upadhyay",Thriller,Phantom Films|Reliance Entertainment|,https://en.wikipedia.org/wiki/Trapped_(2016_Indian_film),300,50000000,[2017-03-17],35300000,https://boxofficeindia.com/movie.php?movieid=3484,0,0,1,0,0,0,0,0,0,0,0,0,0,0,0,0,0,0,0,0,0.5164835164835165,0.0,30.0,0
18,Machine,Abbas-Mustan,"Mustafa Burmawalla , Kiara Advani",Romance/thriller,A.D.Films|Abbas - Mustan Films Production Pvt. Ltd.|Pen India Pvt. Ltd.|,https://en.wikipedia.org/wiki/Machine_(2017_film),1600,300000000,[17 March 2017],31900000,https://boxofficeindia.com/movie.php?movieid=3485,0,0,1,0,1,0,0,0,0,0,0,0,0,0,0,0,0,0,0,0,0.0,0.0,0.0,0
19,Phillauri,Anshai Lal,"Anushka Sharma, Diljit Dosanjh, Suraj Sharma , Mehreen Pirzada",Romance/comedy,Clean Slate Films|Fox Star Studio India Pvt. Ltd.|,https://en.wikipedia.org/wiki/Phillauri_(film),1500,290000000,['2017-03-24'],344900000,https://boxofficeindia.com/movie.php?movieid=3486,1,0,0,0,1,0,0,0,0,0,0,0,0,0,0,0,0,0,0,0,0.3783783783783784,0.0,0.0,0
20,Bhanwarey,Shaurya Singh,"Shaurya Singh, Karan Thakur, Jashan Singh , Priyanka Shukla",Comedy,Screenshot Media & Entertainment|Sudha Creations|,https://en.wikipedia.org/wiki/Bhanwarey,10,--,['2017-03-24'],70000,https://www.boxofficeindia.com/movie.php?movieid=3494,1,0,0,0,0,0,0,0,0,0,0,0,0,0,0,0,0,0,0,0,0.0,0.0,0.0,0
21,Anaarkali of Aarah,Avinash Das,Swara Bhaskar,Drama,Promodome Motion Pictures|,https://en.wikipedia.org/wiki/Anaarkali_of_Aarah,325,57500000,['2017-03-24'],14800000,https://boxofficeindia.com/movie.php?movieid=3495,0,1,0,0,0,0,0,0,0,0,0,0,0,0,0,0,0,0,0,0,0.0,0.0,0.0,0
22,Naam Shabana,Shivam Nair,"Taapsee Pannu, Prithviraj Sukumaran , Akshay Kumar",Action/thriller,Cape Of Good Films Pvt. Ltd.|Friday Filmworks Pvt. Ltd.|Reliance Entertainment|,https://en.wikipedia.org/wiki/Naam_Shabana,2000,330000000,['2017-03-31'],497500000,https://boxofficeindia.com/movie.php?movieid=3496,0,0,1,1,0,0,0,0,0,0,0,0,0,0,0,0,0,0,0,0,1.3021978021978022,0.0,800.0,0
23,Poorna: Courage Has No Limit,Rahul Bose,"Aditi Inamdar, Rahul Bose , Heeba Shah",Adventure,Raay Media|Rahul Bose Productions|,https://en.wikipedia.org/wiki/Poorna:_Courage_Has_No_Limit,300,37500000,[2017-03-31],37100000,https://boxofficeindia.com/movie.php?movieid=3498,0,0,0,0,0,0,0,0,0,0,0,0,0,0,0,1,0,0,0,0,0.0,0.0,0.0,0
24,Laali Ki Shaadi Mein Laaddoo Deewana,Manish Harishankar,"Vivaan Shah, Akshara Haasan, Gurmeet Choudhary , Kavita Verma",Comedy/drama,Star Entertainment Pvt. Ltd.|,https://en.wikipedia.org/wiki/Laali_Ki_Shaadi_Mein_Laaddoo_Deewana,700,--,['2017-04-07'],12300000,https://boxofficeindia.com/movie.php?movieid=3499,1,1,0,0,0,0,0,0,0,0,0,0,0,0,0,0,0,0,0,0,0.0,0.0,0.0,0
25,Mirza Juuliet,Rajesh Ram Singh,"Darshan Kumar, Pia Bajpai , Chandan Roy Sanyal",Comedy/drama,Falansha Media Pvt. Ltd.|Green Apple Media|Shemaroo Entertainment|,https://en.wikipedia.org/wiki/Mirza_Juuliet,550,--,['2017-04-07'],9500000,https://boxofficeindia.com/movie.php?movieid=3502,1,1,0,0,0,0,0,0,0,0,0,0,0,0,0,0,0,0,0,0,0.0,0.0,0.0,0
26,Mukti Bhawan,Shubhashish Bhutiani,"Adil Hussain, Lalit Behl , Navnindra Behl",Drama,Red Carpet Moving Pictures|,https://en.wikipedia.org/wiki/Mukti_Bhawan,125,--,[2017-04-07],7400000,https://boxofficeindia.com/movie.php?movieid=3505,0,1,0,0,0,0,0,0,0,0,0,0,0,0,0,0,0,0,0,0,0.0,0.0,0.0,0
27,Saanjh,Ajay Saklani,"Aditi Charak, Vishal Parpagga , Rupeshwari Sharma",Drama,Silent Hills Studio|,https://en.wikipedia.org/wiki/Saanjh,1,--,['2017-04-14'],35000,https://boxofficeindia.com/movie.php?movieid=3511,0,1,0,0,0,0,0,0,0,0,0,0,0,0,0,0,0,0,0,0,0.0,0.0,0.0,0
28,Begum Jaan,Srijit Mukherji,"Vidya Balan, Ila Arun, Gauhar Khan, Sumit Nijhawan , Chunky Pandey",Period drama,Play Entertainment|Vishesh Films Pvt. Ltd.|,https://en.wikipedia.org/wiki/Begum_Jaan,1250,190000000,['2017-04-14'],277700000,https://boxofficeindia.com/movie.php?movieid=3510,0,1,0,0,0,0,0,0,1,0,0,0,0,0,0,0,0,0,0,0,0.3409090909090909,0.0,0.0,0
29,Noor,Sunhil Sippy,"Sonakshi Sinha, Purab Kohli , Manish Chaudhary",Comedy/drama,Abundantia Entertainment|T-Series|,https://en.wikipedia.org/wiki/Noor_(film),1450,240000000,['2017-04-21'],93200000,https://boxofficeindia.com/movie.php?movieid=3512,1,1,0,0,0,0,0,0,0,0,0,0,0,0,0,0,0,0,0,0,0.2631578947368421,0.0,0.0,0
30,Ek Thi Rani Aisi Bhi,Gulbahar Singh,"Hema Malini, Vinod Khanna, Sachin Khedekar",Biopic,Rajmata Vijaya Scindia Smriti Nyas|Zee Classic|,https://en.wikipedia.org/wiki/Ek_Thi_Rani_Aisi_Bhi,65,4000000,['2017-04-21'],875000,https://boxofficeindia.com/movie.php?movieid=3514,0,0,0,0,0,1,0,0,0,0,0,0,0,0,0,0,0,0,0,0,0.0,0.0,0.0,0
31,Maatr,Ashtar Sayed,Raveena Tandon,Thriller/drama,Anjum Rizvi Film Company|CDB Musical Production|Manoj Adhikari Production|Pugmark Films|,https://en.wikipedia.org/wiki/Maatr,650,85000000,['2017-04-21'],16200000,https://www.boxofficeindia.com/movie.php?movieid=3513,0,1,1,0,0,0,0,0,0,0,0,0,0,0,0,0,0,0,0,0,0.0,0.0,0.0,0
32,Mantostaan,Rahat Kazmi,"Raghubir Yadav, Virendra Saxena , Sonal Sehgal",Anthology/drama,Aaditya Pratap Singh Entertainment|Mediamark Corp. International|Rahat Kazmi Films|Taqiq Khan Productions|Zeba Sajid Films|,https://en.wikipedia.org/wiki/Mantostaan,20,--,[5 May 2017],325000,https://boxofficeindia.com/movie.php?movieid=3523,0,1,0,0,0,0,0,0,0,0,0,0,0,0,0,0,0,0,0,0,0.0,0.0,0.0,0
33,Meri Pyaari Bindu,Akshay Roy,"Ayushmann Khurrana , Parineeti Chopra",Romance,Yash Raj Films|,https://en.wikipedia.org/wiki/Meri_Pyaari_Bindu,750,220000000,['2017-05-12'],127600000,https://boxofficeindia.com/movie.php?movieid=3525,0,0,0,0,1,0,0,0,0,0,0,0,0,0,0,0,0,0,0,0,0.5636363636363636,0.0,35.0,0
34,Sarkar 3,Ram Gopal Varma,"Amitabh Bachchan, Jackie Shroff, Amit Sadh , Yami Gautam",Political crime thriller,AB Corp Ltd.|Alumbra Entertainment|Anand Pandit Motion Pictures|Eros International|,https://en.wikipedia.org/wiki/Sarkar_3,1450,360000000,['2017-05-12'],138300000,https://boxofficeindia.com/movie.php?movieid=3524,0,0,1,0,0,0,0,1,0,0,0,1,0,0,0,0,0,0,0,0,0.6589743589743591,0.0,65.0,0
35,Half Girlfriend,Mohit Suri,"Arjun Kapoor , Shraddha Kapoor",Romance/drama,Balaji Motion Pictures|,https://en.wikipedia.org/wiki/Half_Girlfriend_(film),2400,500000000,['2017-05-19'],723600000,https://boxofficeindia.com/movie.php?movieid=3527,0,1,0,0,1,0,0,0,0,0,0,0,0,0,0,0,0,0,0,0,0.4230769230769231,0.5454545454545454,100.0,0
36,Jattu Engineer,"Gurmeet Ram Rahim Singh, Honeypreet Insan","Gurmeet Ram Rahim Singh, Sukhottam Insan",Comedy,Hakikat Entertainment Pvt. Ltd.|,https://en.wikipedia.org/wiki/Jattu_Engineer,200,90000000,['2017-05-19'],98300000,https://boxofficeindia.com/movie.php?movieid=3528,1,0,0,0,0,0,0,0,0,0,0,0,0,0,0,0,0,0,0,0,0.0,0.0,0.0,0
37,Hindi Medium,Saket Chaudhary,"Irrfan Khan , Saba Qamar",Comedy/drama,T-Series|,https://en.wikipedia.org/wiki/Hindi_Medium_(film),1050,230000000,['2017-05-19'],776100000,https://boxofficeindia.com/movie.php?movieid=3526,1,1,0,0,0,0,0,0,0,0,0,0,0,0,0,0,0,0,0,0,0.2631578947368421,0.0,40.0,0
38,Sachin: A Billion Dreams,James Erskine,Sachin Tendulkar,Biopic,200 Not Out Productions|Carnival Motion Pictures|,https://en.wikipedia.org/wiki/Sachin:_A_Billion_Dreams,1950,390000000,['2017-05-26'],541800000,https://boxofficeindia.com/movie.php?movieid=3532,0,0,0,0,0,1,0,0,0,0,0,0,0,0,0,0,0,0,0,0,0.0,0.0,0.0,0
39,Thodi Thodi Si Manmaaniyan,Aditya Sarpotdar,"Arsh Sehrawat, Shrenu Parikh, Shilpa Tulaskar , Mukesh Tiwari",Romance,Jumping Tomato Marketing Pvt. Ltd.|NH8 Production|,https://en.wikipedia.org/wiki/Thodi_Thodi_Si_Manmaaniyan,20,--,['2017-05-26'],415000,https://boxofficeindia.com/movie.php?movieid=3531,0,0,0,0,1,0,0,0,0,0,0,0,0,0,0,0,0,0,0,0,0.0,0.0,0.0,0
40,A Death in the Gunj,Konkona Sen Sharma,"Vikrant Massey, Ranvir Shorey, Kalki Koechlin, Tillotama Shome, Gulshan Devaiah, Tanuja, Om Puri, Jim Sarbh, Arya Mitra Sharma",Crime/drama,MacGuffin Pictures|Moh Maya Films|Studioz iDrream|,https://en.wikipedia.org/wiki/A_Death_in_the_Gunj,100,--,[2017-06-02],13700000,https://boxofficeindia.com/movie.php?movieid=3540,0,1,0,0,0,0,0,1,0,0,0,0,0,0,0,0,0,0,0,0,0.0,0.0,0.0,0
41,Hanuman: Da' Damdaar,Ruchi Narain,"Salman Khan, Raveena Tandon , Kunal Khemu",Animation,R.A.T. Films|RNB Films|,https://en.wikipedia.org/wiki/Hanuman:_Da%27_Damdaar,525,--,['2017-06-02'],15500000,https://www.boxofficeindia.com/movie.php?movieid=3543,0,0,0,0,0,0,0,0,0,0,0,0,0,0,0,0,0,0,0,0,0.0,0.0,2100.0,0
42,Sweetiee Weds NRI,Hasnain Hyderabadwala,"Himansh Kohli, Zoya Afroz , Darshan Jariwala",Romance/comedy,Asmiy Entertainment|Grand Motion Pictures|,https://en.wikipedia.org/wiki/Sweetiee_Weds_NRI,175,--,['2017-06-02'],1950000,https://boxofficeindia.com/movie.php?movieid=3538,1,0,0,0,1,0,0,0,0,0,0,0,0,0,0,0,0,0,0,0,0.0,0.0,0.0,0
43,Dobaara: See Your Evil,Prawaal Raman,"Huma Qureshi , Saqib Saleem",Horror,B4U Entertainment|Intrepid Pictures|Relativity Media|Zahhak Films|,https://en.wikipedia.org/wiki/Dobaara:_See_Your_Evil,675,--,['2017-06-02'],18900000,https://boxofficeindia.com/movie.php?movieid=3545,0,0,0,0,0,0,1,0,0,0,0,0,0,0,0,0,0,0,0,0,0.0,0.0,0.0,0
44,Dear Maya,Sunaina Bhatnagar,Manisha Koirala,Thriller/drama,Bake My Cake Films|Wave Cinemas|,https://en.wikipedia.org/wiki/Dear_Maya,75,--,['2017-06-02'],2200000,https://boxofficeindia.com/movie.php?movieid=3541,0,1,1,0,0,0,0,0,0,0,0,0,0,0,0,0,0,0,0,0,0.0,0.0,0.0,0
45,Raabta,Dinesh Vijan,"Sushant Singh Rajput, Kriti Sanon , Jim Sarbh",Romance/thriller,Maddock Films|T-Series|,https://en.wikipedia.org/wiki/Raabta_(film),1800,470000000,['2017-06-09'],299400000,https://boxofficeindia.com/movie.php?movieid=3549,0,0,1,0,1,0,0,0,0,0,0,0,0,0,0,0,0,0,0,0,0.2631578947368421,0.0,100.0,0
46,Behen Hogi Teri,Ajay K Pannalal,"Rajkummar Rao , Shruti Haasan",Romance/comedy,Oddball Motion Pictures|,https://en.wikipedia.org/wiki/Behen_Hogi_Teri,750,130000000,['2017-06-09'],30600000,https://boxofficeindia.com/movie.php?movieid=3548,1,0,0,0,1,0,0,0,0,0,0,0,0,0,0,0,0,0,0,0,0.0,0.0,30.0,0
47,Bachche Kachche Sachche,Ravi Sadasiv,"Ekta Singh, Ashish Vidyarthi , Mukesh Tiwari",Children/drama,Ravees Enlightenment & Entertainment|,https://en.wikipedia.org/wiki/Bachche_Kachche_Sachche,25,--,[]],175000,https://www.boxofficeindia.com/movie.php?movieid=3544,0,1,0,0,0,0,0,0,0,0,1,0,0,0,0,0,0,0,0,0,0.0,0.0,0.0,0
48,Love You Family,Sachindra Sharma,"Salman Yusuff Khan, Aksha Pardasany , Shakti Kapoor",Drama,Khushi Motion Pictures|,https://en.wikipedia.org/wiki/Love_You_Family,65,--,['2017-06-09'],560000,https://boxofficeindia.com/movie.php?movieid=3546,0,1,0,0,0,0,0,0,0,0,0,0,0,0,0,0,0,0,0,0,0.0,0.0,0.0,0
49,G Kutta Se,Rahul Dahiya,"Rajbeer Singh , Neha Chauhan",Drama,SFE International|,https://en.wikipedia.org/wiki/G_Kutta_Se,30,--,['2017-06-16'],900000,https://www.boxofficeindia.com/movie.php?movieid=3631,0,1,0,0,0,0,0,0,0,0,0,0,0,0,0,0,0,0,0,0,0.0,0.0,0.0,0
50,Bank Chor,Bumpy,"Riteish Deshmukh, Vivek Oberoi , Rhea Chakraborty",Comedy/Thriller,Y Films|,https://en.wikipedia.org/wiki/Bank_Chor,700,150000000,['2017-06-16'],98500000,https://boxofficeindia.com/movie.php?movieid=3551,1,0,1,0,0,0,0,0,0,0,0,0,0,0,0,0,0,0,0,0,0.0,0.0,0.0,0
51,Tubelight,Kabir Khan,"Salman Khan, Sohail Khan , Zhu Zhu",Action/drama,Kabir Khan Films|Salman Khan Films|,https://en.wikipedia.org/wiki/Tubelight_(film),4400,1350000000,['2017-06-23'],1563900000,https://boxofficeindia.com/movie.php?movieid=3550,0,1,0,1,0,0,0,0,0,0,0,0,0,0,0,0,0,0,0,0,0.0,0.5,2100.0,1
52,Ek Haseena Thi Ek Deewana Tha,Suneel Darshan,"Shiv Darshan, Natasha Fernandez , Upen Patel",Romance,Shree Krishna International|,https://en.wikipedia.org/wiki/Ek_Haseena_Thi_Ek_Deewana_Tha,725,140000000,[30 June 2017],16700000,https://boxofficeindia.com/movie.php?movieid=3557,0,0,0,0,1,0,0,0,0,0,0,0,0,0,0,0,0,0,0,0,0.4,0.3333333333333333,0.0,0
53,Mom,Ravi Udyawar,"Sridevi, Akshaye Khanna , Nawazuddin Siddiqui",Thriller/drama,BSK Network And Entertainment|MAD Entertainment|Naresh Agarwal Films|Zee Studios|,https://en.wikipedia.org/wiki/Mom_(film),1200,370000000,['2017-07-07'],416100000,https://boxofficeindia.com/movie.php?movieid=3561,0,1,1,0,0,0,0,0,0,0,0,0,0,0,0,0,0,0,0,0,0.4,0.0,25.0,0
54,Guest Iin London,Ashwni Dhir,"Kartik Aaryan, Kriti Kharbanda, Paresh Rawal , Tanvi Azmi",Comedy,Kiaan Entertainment Ltd.|Panorama Studios|,https://en.wikipedia.org/wiki/Guest_Iin_London,1350,280000000,['2017-07-07'],95000000,https://boxofficeindia.com/movie.php?movieid=3560,1,0,0,0,0,0,0,0,0,0,0,0,0,0,0,0,0,0,0,0,0.0,0.0,20.0,0
55,Jagga Jasoos,Anurag Basu,"Ranbir Kapoor , Katrina Kaif",Comedy/romance,Picture Shuru Entertainment|,https://en.wikipedia.org/wiki/Jagga_Jasoos,1750,1310000000,['2017-07-14'],693100000,https://boxofficeindia.com/movie.php?movieid=3562,1,0,0,0,1,0,0,0,0,0,0,0,0,0,0,0,0,0,0,0,0.0,0.5,300.0,0
56,Shab,Onir,"Raveena Tandon, Sanjay Suri, Ashish Bisht, Arpita Pal, Simon Frenay, Raj Suri, Gaurav Nanda",Drama,Anticlock Films|WSG Pictures|,https://en.wikipedia.org/wiki/Shab_(film),60,--,[2017-07-14],1275000,https://boxofficeindia.com/movie.php?movieid=3564,0,1,0,0,0,0,0,0,0,0,0,0,0,0,0,0,0,0,0,0,0.0,0.0,0.0,0
57,Lipstick Under My Burkha,Alankrita Shrivastava,"Konkona Sen Sharma, Ratna Pathak Shah , Aahana Kumra",Sex/drama,ALT Entertainment|Prakash Jha Productions|,https://en.wikipedia.org/wiki/Lipstick_Under_My_Burkha,500,70000000,['2017-07-21'],215600000,https://boxofficeindia.com/movie.php?movieid=3567,0,1,0,0,0,0,0,0,0,0,0,0,0,0,0,0,0,0,0,0,0.8500000000000001,0.0,0.0,0
58,Munna Michael,Sabbir Khan,"Tiger Shroff , Nawazuddin Siddiqui",Action/romance,Eros International|Next Gen Films|,https://en.wikipedia.org/wiki/Munna_Michael,2900,410000000,['2017-07-21'],438200000,https://boxofficeindia.com/movie.php?movieid=3563,0,0,0,1,1,0,0,0,0,0,0,0,0,0,0,0,0,0,0,0,0.35897435897435903,0.75,95.0,0
59,Raag Desh : Birth Of A Nation,Tigmanshu Dhulia,"Kunal Kapoor, Amit Sadh , Mohit Marwah",Period drama/action,Raj Aman Productions|,https://en.wikipedia.org/wiki/Raagdesh,625,9500000,[]],11800000,https://www.boxofficeindia.com/movie.php?movieid=3571,0,1,0,1,0,0,0,0,1,0,0,0,0,0,0,0,0,0,0,0,0.0,0.0,0.0,0
60,Indu Sarkar,Madhur Bhandarkar,"Anupam Kher, Neil Nitin Mukesh, Kirti Kulhari, Tota Roy Chowdhury, Supriya Vinod, Sheeba Chaddha, Parvin Dabas",Drama,Bhandarkar Entertainment|Mega Bollywood Pvt.Ltd.|,https://en.wikipedia.org/wiki/Indu_Sarkar,875,120000000,['2017-07-28'],60700000,https://boxofficeindia.com/movie.php?movieid=3570,0,1,0,0,0,0,0,0,0,0,0,0,0,0,0,0,0,0,0,0,0.0,0.38461538461538464,0.0,0
61,Mubarakan,Anees Bazmee,"Anil Kapoor, Arjun Kapoor , Ileana D'Cruz",Comedy/romance,Cine1 Studios|Sony Pictures Network|,https://en.wikipedia.org/wiki/Mubarakan,2300,650000000,[28th July 2017],710100000,https://boxofficeindia.com/movie.php?movieid=3569,1,0,0,0,1,0,0,0,0,0,0,0,0,0,0,0,0,0,0,0,0.0,0.5,140.0,0
62,Gurgaon,Shanker Raman,"Akshay Oberoi, Ragini Khanna, Pankaj Tripathi, Aamir Bashir, Shalini Vatsa, Srinivas Sunderrajan",Neo-noir,Hashtag Film Studios|Jar Pictures Pvt. Ltd.|M R Filmworks|,https://en.wikipedia.org/wiki/Gurgaon_(film),75,--,['2017-08-04'],2900000,https://boxofficeindia.com/movie.php?movieid=3573,0,0,0,0,0,0,0,0,0,0,0,0,0,0,0,0,0,1,0,0,0.0,0.0,0.0,0
63,Jab Harry Met Sejal,Imtiaz Ali,"Shah Rukh Khan, Anushka Sharma, Evelyn Sharma , Chandan Roy Sanyal",Romance,Red Chillies Entertainment|,https://en.wikipedia.org/wiki/Jab_Harry_Met_Sejal,3200,1190000000,['2017-08-04'],801100000,https://boxofficeindia.com/movie.php?movieid=3577,0,0,0,0,1,0,0,0,0,0,0,0,0,0,0,0,0,0,0,0,0.6875,0.42857142857142855,1000.0,0
64,Toilet: Ek Prem Katha,Shree Narayan Singh,"Akshay Kumar, Bhumi Pednekar, Divyendu Sharma, Anupam Kher, Sana Khan",Comedy/drama,Cape Of Good Films Pvt. Ltd.|KriArj Entertainment|Plan C Studio|Viacom 18 Motion Pictures|,https://en.wikipedia.org/wiki/Toilet:_Ek_Prem_Katha,2950,750000000,['2017-08-11'],1680800000,https://boxofficeindia.com/movie.php?movieid=3578,1,1,0,0,0,0,0,0,0,0,0,0,0,0,0,0,0,0,0,0,0.8630952380952381,0.0,800.0,1
65,Yeh Hai India,Lom Harsh,"Gavie Chahal, Deana Uppal, Mohan Agashe, Mohan Joshi",Patriotic/drama,Ketan Mehta Films Pvt. Ltd.|,https://en.wikipedia.org/wiki/Yeh_Hai_India,100,22500000,[]],29600000,https://boxofficeindia.com/movie.php?movieid=2951,0,1,0,0,0,0,0,0,0,0,0,0,0,0,0,0,0,0,1,0,0.0,0.0,0.0,0
66,Partition: 1947,Gurinder Chadha,"Hugh Bonneville, Gillian Anderson, Manish Dayal, Huma Qureshi , Michael Gambon",Drama,Ketan Mehta Films Pvt. Ltd.|,https://en.wikipedia.org/wiki/Partition:_1947,95,47500000,[2017-08-18],29600000,https://boxofficeindia.com/movie.php?movieid=2951,0,1,0,0,0,0,0,0,0,0,0,0,0,0,0,0,0,0,0,0,0.0,0.0,0.0,0
67,Bareilly Ki Barfi,Ashwini Iyer Tiwari,"Ayushmann Khurrana, Rajkummar Rao, Kriti Sanon",Comedy/romance,BR Studios|Junglee Pictures|,https://en.wikipedia.org/wiki/Bareilly_Ki_Barfi,1000,200000000,['2017-08-18'],440800000,https://boxofficeindia.com/movie.php?movieid=3580,1,0,0,0,1,0,0,0,0,0,0,0,0,0,0,0,0,0,0,0,0.0,0.0,65.0,0
68,A Gentleman,Raj and D.K.,"Sidharth Malhotra, Jacqueline Fernandez, Darshan Kumar, Suniel Shetty",Action/romance,Fox Star Studio India Pvt. Ltd.|,https://en.wikipedia.org/wiki/A_Gentleman_(2017_film),1900,670000000,['2017-08-25'],229300000,https://boxofficeindia.com/movie.php?movieid=3589,0,0,0,1,1,0,0,0,0,0,0,0,0,0,0,0,0,0,0,0,0.3783783783783784,0.0,100.0,0
69,Babumoshai Bandookbaaz,Kushan Nandy,"Nawazuddin Siddiqui, Bidita Bag, Jatin Goswami, Shraddha Das, Anil George, Bhagwan Tiwari, Jeetu Shivhare, Murali Sharma, Divya Dutta, Sachin Chaubey",Action,Movies By The Mob|,https://en.wikipedia.org/wiki/Babumoshai_Bandookbaaz,950,100000000,[25 August 2017],126200000,https://boxofficeindia.com/movie.php?movieid=3588,0,0,0,1,0,0,0,0,0,0,0,0,0,0,0,0,0,0,0,0,0.0,0.0,25.0,0
70,Yadvi – The Dignified Princess,Jyoti Singh,"Chandrachur Singh, Charu Vyas, Rahul Godara, Jyoti Singh, Vibhu Raghave, Namya Saxena, Nikkitasha Marwaha, Reshaa Sabarawal, Mini Pandit, Ashwarya Singh",Drama,Karma Features Pvt. Ltd.|Paramhans Creations|T-Series|,https://en.wikipedia.org/wiki/Yadvi_%E2%80%93_The_Dignified_Princess,950,100000000,['2017-08-25'],191800000,https://www.boxofficeindia.com/movie.php?movieid=3604,0,1,0,0,0,0,0,0,0,0,0,0,0,0,0,0,0,0,0,0,0.2631578947368421,0.0,0.0,0
71,Qaidi Band,Habib Faisal,"Aadar Jain, Anya Singh, Sachin, Prince Parvinder Singh",Musical/drama,Yash Raj Films|,https://en.wikipedia.org/wiki/Qaidi_Band,800,210000000,['2017-08-25'],4500000,https://boxofficeindia.com/movie.php?movieid=3587,0,1,0,0,0,0,0,0,0,0,0,0,0,0,1,0,0,0,0,0,0.5636363636363636,0.0,0.0,0
72,Baadshaho,Milan Lutharia,"Ajay Devgn, Emraan Hashmi, Vidyut Jammwal, Ileana D'Cruz, Esha Gupta, Sanjay Mishra, Sunny Leone Guest appearance in song, Sharad Kelkar, Ravi Kale",Action/crime Ttriller,T-Series|Vertex Motion Pictures Pvt. Ltd.|,https://en.wikipedia.org/wiki/Baadshaho,2850,900000000,['2017-09-01'],846700000,https://www.boxofficeindia.com/movie.php?movieid=3590,0,0,0,1,0,0,0,1,0,0,0,0,0,0,0,0,0,0,0,0,0.2631578947368421,0.0,850.0,0
73,Shubh Mangal Savdhan,R.S. Prasanna,"Ayushmann Khurrana, Bhumi Pednekar, Brijendra Kala, Shubhankar Tripathi, Anshul Chauhan, Anmol Bajaj",Drama/Comedy,Colour Yellow Picture Ltd.|Eros International|,https://en.wikipedia.org/wiki/Shubh_Mangal_Savdhan_(2017_film),1300,250000000,['2017-09-01'],542300000,https://www.boxofficeindia.com/movie.php?movieid=3591,1,1,0,0,0,0,0,0,0,0,0,0,0,0,0,0,0,0,0,0,1.0732600732600734,0.0,35.0,0
74,Poster Boys,Shreyas Talpade,"Sunny Deol, Shreyas Talpade, Bobby Deol, Sonali Kulkarni, Randheer Rai, Dilip Prabhavalkar, Elli AvrRam Special Appearance In A Song, Samiksha Bhatnagar, Bharati Achrekar",Comedy,Affluence Movies Pvt. Ltd.|Sony Pictures Network|SPE Films India Pvt. Ltd.|Sunny Super Sound|,https://en.wikipedia.org/wiki/Poster_Boys_(film),1300,270000000,[8 September 2017],150000000,https://www.boxofficeindia.com/movie.php?movieid=3593,1,0,0,0,0,0,0,0,0,0,0,0,0,0,0,0,0,0,0,0,0.0,0.0,25.0,0
75,Daddy,Ashim Ahluwalia,"Arjun Rampal, Aishwarya Rajesh, Nishikant Kamat, Anand Ingale, Rajesh Shringarpure, Purnanand Wandekar, Anupriya Goenka, Shruti Bapna, Usha Naik, Shrikant Yadav, Deepak Damle, Raj Arjun, Vijay Sanap, Abhimanyu Arun",Crime/drama,Karta Entertainment|Kundalini Entertainment|,https://en.wikipedia.org/wiki/Daddy_(2017_film),1150,210000000,['2017-09-08'],136800000,https://boxofficeindia.com/movie.php?movieid=3592,0,1,0,0,0,0,0,1,0,0,0,0,0,0,0,0,0,0,0,0,0.0,0.0,0.0,0
76,Simran,Hansal Mehta,"Kangana Ranaut, Sohum Shah, Hiten Kumar, Kishori Shahane, Rupinder Nagra",Drama,Karma Features Pvt. Ltd.|Paramhans Creations|T-Series|,https://en.wikipedia.org/wiki/Simran_(film),1550,280000000,['2017-09-15'],191800000,https://www.boxofficeindia.com/movie.php?movieid=3604,0,1,0,0,0,0,0,0,0,0,0,0,0,0,0,0,0,0,0,0,0.2631578947368421,0.0,0.0,0
77,Lucknow Central,Ranjit Tiwari,"Farhan Akhtar, Diana Penty, Deepak Dobriyal, Gippy Grewal, Ronit Roy, Inaamulhaq, Rajesh Sharma",Drama,Emmay Entertainment|Viacom 18 Motion Pictures|,https://en.wikipedia.org/wiki/Lucknow_Central,1250,300000000,['2017-09-15'],148600000,https://www.boxofficeindia.com/movie.php?movieid=3605,0,1,0,0,0,0,0,0,0,0,0,0,0,0,0,0,0,0,0,0,0.2916666666666667,0.0,100.0,0
78,Patel Ki Punjabi Shaadi,Sanjay Chhel,"Rishi Kapoor, Paresh Rawal, Vir Das, Prem Chopra, Payal Ghosh, Jinal Belani, Divya Seth, Bharati Achrekar, Tiku Talsania, Shilpa Shinde",Comedy/drama,Bholenath Movies|,https://en.wikipedia.org/wiki/Patel_Ki_Punjabi_Shaadi,725,110000000,[15 September 2017 (15 September 2017)],20500000,https://boxofficeindia.com/movie.php?movieid=3603,1,1,0,0,0,0,0,0,0,0,0,0,0,0,0,0,0,0,0,0,0.0,0.0,0.0,0
79,Newton,Amit Masurkar,"Rajkummar Rao, Pankaj Tripathi, Anjali Patil, Raghuvir Yadav",Dark comedy,Colour Yellow Picture Ltd.|Drishyam Films|Eros International|,https://en.wikipedia.org/wiki/Newton_(film),450,--,['2017-09-22'],291200000,https://boxofficeindia.com/movie.php?movieid=3609,1,0,0,0,0,0,0,0,0,0,0,0,0,0,0,0,0,0,0,1,1.0732600732600734,0.0,30.0,0
80,Bhoomi,Omung Kumar,"Sanjay Dutt, Aditi Rao Hydari, Sidhant Gupta",Action/drama,Legend Studios|T-Series|,https://en.wikipedia.org/wiki/Bhoomi_(film),2000,310000000,['2017-09-22'],120300000,https://boxofficeindia.com/movie.php?movieid=3607,0,1,0,1,0,0,0,0,0,0,0,0,0,0,0,0,0,0,0,0,0.2631578947368421,0.0,35.0,0
81,The Final Exit,Dhwanil Mehta,"Kunaal Roy Kapur, Archana Shastry, Elena Kazan, Reyhna Malhotra, Scarlett Wilson",Horror,Mars Entertainment Group|,https://en.wikipedia.org/wiki/The_Final_Exit_(film),125,--,['2017-09-22'],1075000,https://boxofficeindia.com/movie.php?movieid=3606,0,0,0,0,0,0,1,0,0,0,0,0,0,0,0,0,0,0,0,0,0.0,0.0,0.0,0
82,JD,Shailendra Pandey,"Govind Namdev, Aman Verma, Vedita Pratap Singh, Lalit Bisht, Arvind Gaur",Drama/thriller,Eros International|Salman Khan Films|,https://en.wikipedia.org/wiki/JD_(film),1100,290000000,['2017-09-22'],4221300000,https://boxofficeindia.com/movie.php?movieid=2899,0,1,1,0,0,0,0,0,0,0,0,0,0,0,0,0,0,0,0,0,0.35897435897435903,0.0,0.0,0
83,Haseena Parkar,Apoorva Lakhia,"Shraddha Kapoor, Sharman Joshi, Siddhanth Kapoor, Rajesh Tailang, Satendra Bagasi, Ankur Bhatia",Biographic,Swiss Entertainment Pvt. Ltd.|,https://en.wikipedia.org/wiki/Haseena_Parkar,1150,180000000,['2017-09-22'],84500000,https://boxofficeindia.com/movie.php?movieid=3608,0,0,0,0,0,0,0,0,0,0,0,0,0,0,0,0,0,0,0,0,0.0,0.0,0.0,0
84,Judwaa 2,David Dhawan,"Varun Dhawan, Jacqueline Fernandez, Taapsee Pannu, Anupam Kher, Sachin Khedekar, Upasana Singh, Rajpal Yadav, Pavan Malhotra, Ali Asgar, Vivan Bhatena, Vikas Verma, Johnny Lever, Rajat Rawail, Salman Khan (cameo)",Action/comedy,Fox Star Studio India Pvt. Ltd.|Nadiadwala Grandson Entertainment|,https://en.wikipedia.org/wiki/Judwaa_2,3500,630000000,['2017-09-29'],1693900000,https://www.boxofficeindia.com/movie.php?movieid=3611,1,0,0,1,0,0,0,0,0,0,0,0,0,0,0,0,0,0,0,0,1.1511056511056508,0.5882352941176471,400.0,1
85,Chef,Raja Krishna Menon,"Saif Ali Khan, Padmapriya Janakiraman , Dhanish Karthik",Comedy,Abundantia Entertainment|Bandra West Pictures|T-Series|,https://en.wikipedia.org/wiki/Chef_(2017_film),1550,310000000,['2017-10-06'],80700000,https://boxofficeindia.com/movie.php?movieid=3623,1,0,0,0,0,0,0,0,0,0,0,0,0,0,0,0,0,0,0,0,0.2631578947368421,0.0,100.0,0
86,Secret Superstar,Advait Chandan,"Zaira Wasim, Meher Vij , Aamir Khan",Musical drama,Aamir Khan Productions|Zee Studios|,https://en.wikipedia.org/wiki/Secret_Superstar,1750,450000000,['2017-10-19'],810000000,https://www.boxofficeindia.com/movie.php?movieid=3629,0,1,0,0,0,0,0,0,0,0,0,0,0,0,1,0,0,0,0,0,0.8888888888888888,0.0,1350.0,1
87,Golmaal Again,Rohit Shetty,"Ajay Devgn, Parineeti Chopra, Tabu, Arshad Warsi, Tusshar Kapoor, Shreyas Talpade, Kunal Khemu, Prakash Raj, Sirshak Shrestha and Neil Nitin Mukesh",Comedy,Mangl Murti Films|Reliance Entertainment|Rohit Shetty Productions|,https://en.wikipedia.org/wiki/Golmaal_Again,3300,1420000000,['2017-10-20'],2641800000,https://boxofficeindia.com/movie.php?movieid=3630,1,0,0,0,0,0,0,0,0,0,0,0,0,0,0,0,0,0,0,0,0.2307692307692308,0.8333333333333334,820.0,1
88,Jia aur Jia,Howard Rosemeyer,"Kalki Koechlin, Richa Chaddha",Road film,AB Sweden|AR Films|Connecting Bollywood|Trilogic Digital Media Ltd.|,https://en.wikipedia.org/wiki/Jia_aur_Jia,275,--,[27 Oct 2017],9300000,https://boxofficeindia.com/movie.php?movieid=3634,0,0,0,0,0,0,0,0,0,0,0,0,0,0,0,0,0,0,0,0,0.0,0.0,0.0,0
89,Rukh,Atanu Mukherjee,"Manoj Bajpayee, Smita Tambe, Kumud Mishra, Adarsh Gourav",Drama,Drishyam Films|Eros International|,https://en.wikipedia.org/wiki/Rukh_(film),300,--,['2017-10-27'],8800000,https://boxofficeindia.com/movie.php?movieid=3633,0,1,0,0,0,0,0,0,0,0,0,0,0,0,0,0,0,0,0,0,0.35897435897435903,0.0,0.0,0
90,Ittefaq,Abhay Chopra,"Sidharth Malhotra, Sonakshi Sinha , Akshaye Khanna",Thriller,BR Studios|Dharma Productions Pvt. Ltd.|Red Chillies Entertainment|,https://en.wikipedia.org/wiki/Ittefaq_(2017_film),1100,290000000,['2017-11-03'],357200000,https://boxofficeindia.com/movie.php?movieid=3643,0,0,1,0,0,0,0,0,0,0,0,0,0,0,0,0,0,0,0,0,1.3639705882352942,0.0,100.0,0
91,The House Next Door,Milind Rau,"Siddharth, Andrea Jeremiah , Atul Kulkarni",Horror,Etaki Entertainment|Viacom 18 Motion Pictures|,https://en.wikipedia.org/wiki/The_House_Next_Door_(2017_film),350,--,['2017-11-03'],23100000,https://boxofficeindia.com/movie.php?movieid=3648,0,0,0,0,0,0,1,0,0,0,0,0,0,0,0,0,0,0,0,0,0.2916666666666667,0.0,0.0,0
92,Ribbon,Rakhee Sandilya,"Kalki Koechlin, Sumeet Vyas, Hitesh Malhan",Drama,Eros International|Red Cart Films|,https://en.wikipedia.org/wiki/Ribbon_(film),175,--,['2017-11-03'],5300000,https://boxofficeindia.com/movie.php?movieid=3641,0,1,0,0,0,0,0,0,0,0,0,0,0,0,0,0,0,0,0,0,0.35897435897435903,0.0,0.0,0
93,Shaadi Mein Zaroor Aana,Ratnaa Sinha,"Rajkummar Rao, Kriti Kharbanda",Romance/drama,Soham Rockstar Entertainment|Soundrya Productions|,https://en.wikipedia.org/wiki/Shaadi_Mein_Zaroor_Aana,975,130000000,['2017-11-10'],194700000,https://boxofficeindia.com/movie.php?movieid=3649,0,1,0,0,1,0,0,0,0,0,0,0,0,0,0,0,0,0,0,0,0.0,0.0,30.0,0
94,Qarib Qarib Singlle,Tanuja Chandra,"Irrfan Khan, Parvathy, Brijendra Kala",Romance/comedy,Jar Pictures Pvt. Ltd.|Zee Studios|,https://en.wikipedia.org/wiki/Qarib_Qarib_Singlle,900,170000000,['2017-11-10'],210300000,https://boxofficeindia.com/movie.php?movieid=3650,1,0,0,0,1,0,0,0,0,0,0,0,0,0,0,0,0,0,0,0,0.0,0.0,40.0,0
95,Aksar 2,Ananth Narayan Mahadevan,"Zareen Khan, Gautam Rode, Abhinav Shukla, Mohit Madaan",Thriller,Siddhi Vinayak Creations|,https://en.wikipedia.org/wiki/Aksar_2,1300,90000000,['2017-11-17'],63600000,https://boxofficeindia.com/movie.php?movieid=3656,0,0,1,0,0,0,0,0,0,0,0,0,0,0,0,0,0,0,0,0,0.0,0.0,0.0,0
96,Panchlait,Prem Prakash Modi,"Amitosh Nagpal, Anuradha Mukherjee , Yashpal Sharma",Romantic comedy,Funtime Entertainment|,https://en.wikipedia.org/wiki/Panchlait,75,--,['2017-11-17'],525000,https://www.boxofficeindia.com/movie.php?movieid=3655,1,0,0,0,0,0,0,0,0,0,0,0,0,0,0,0,0,0,0,0,0.0,0.0,0.0,0
97,Tumhari Sulu,Ruchi Chaudhari,"Vidya Balan , Manav Kaul",Social/Comedy,Ellipsis Entertainment|T-Series|,https://en.wikipedia.org/wiki/Tumhari_Sulu,1200,200000000,['2017-11-17'],423600000,https://boxofficeindia.com/movie.php?movieid=3657,1,0,0,0,0,0,0,0,0,0,0,0,0,0,0,0,1,0,0,0,0.2631578947368421,0.0,0.0,0
98,Dil Jo Na Keh Saka,Naresh Lalwani,"Himansh Kohli, Priya Banerjee",Romantic drama,Diyas Productions Pvt. Ltd.|,https://en.wikipedia.org/wiki/Dil_Jo_Na_Keh_Saka_(2017_Movie),150,--,[17 November 2017],1775000,https://boxofficeindia.com/movie.php?movieid=3653,0,1,0,0,0,0,0,0,0,0,0,0,0,0,0,0,0,0,0,0,0.0,0.0,0.0,0
99,Julie 2,Deepak Shivdasani,"Raai Laxmi, Ravi Kishan , Aditya Srivastava",Erotic thriller,Triumph Talkies|,https://en.wikipedia.org/wiki/Julie_2,1000,85000000,['2017-11-24'],33100000,https://boxofficeindia.com/movie.php?movieid=3663,0,0,1,0,0,0,0,0,0,0,0,0,0,0,0,0,0,0,0,0,0.0,0.0,0.0,0
100,Ajji,Devashish Makhija,"Sudhir Pandey, Sushma Deshpande",Drama,Saregama|Yoodlee Films|,https://en.wikipedia.org/wiki/Ajji,40,--,['2017-11-24'],850000,https://www.boxofficeindia.com/movie.php?movieid=3662,0,1,0,0,0,0,0,0,0,0,0,0,0,0,0,0,0,0,0,0,0.0,0.0,0.0,0
101,Kadvi Hawa,Nila Madhab Panda,"Sanjay Mishra, Ranvir Shorey, Tillotama Shome, Bupesh Singh, Ekta Sawant",Drama/disaster,Drishyam Films|Eros International|,https://en.wikipedia.org/wiki/Kadvi_Hawa,125,--,['2017-11-24'],2900000,https://www.boxofficeindia.com/movie.php?movieid=3661,0,1,0,0,0,0,0,0,0,0,0,0,0,0,0,0,0,0,0,0,0.35897435897435903,0.0,0.0,0
102,Saankal,Dedipya Joshii,"Tanima Bhattacharya,Chetan Sharma, Harish Hariaudh",Drama,Paramhans Creations|,https://en.wikipedia.org/wiki/Saankal,300,27500000,[28th Nov 2017],17600000,https://boxofficeindia.com/movie.php?movieid=1296,0,1,0,0,0,0,0,0,0,0,0,0,0,0,0,0,0,0,0,0,0.0,0.0,0.0,0
103,Tera Intezaar,Raajeev Waalia,"Arbaaz Khan , Sunny Leone",Romantic thriller,Bageshree Films|,https://en.wikipedia.org/wiki/Tera_Intezaar,1050,110000000,[1 December 2017],23900000,https://boxofficeindia.com/movie.php?movieid=3670,0,0,1,0,0,0,0,0,0,0,0,0,0,0,0,0,0,0,0,0,0.0,0.0,0.0,0
104,Firangi,Rajiv Dhingra,"Kapil Sharma, Varun Badola , Edward Sonnenblick",Comedy,K9 Films Pvt. Ltd.|,https://en.wikipedia.org/wiki/Firangi,1550,400000000,['2017-12-01'],119600000,https://boxofficeindia.com/movie.php?movieid=3671,1,0,0,0,0,0,0,0,0,0,0,0,0,0,0,0,0,0,0,0,0.0,0.0,0.0,0
105,Fukrey Returns,Mrighdeep Singh Lamba,"Pulkit Samrat, Priya Anand , Varun Sharma",Comedy,Excel Entertainment|,https://en.wikipedia.org/wiki/Fukrey_Returns,1500,290000000,['2017-12-08'],1000900000,https://boxofficeindia.com/movie.php?movieid=3672,1,0,0,0,0,0,0,0,0,0,0,0,0,0,0,0,0,0,0,0,0.5555555555555556,0.0,30.0,0
106,Sallu ki Shaadi,Mohammad Israr Ansari,"Zeenat Aman, Kiran Kumar, Asrani, Kshayp, Arshin and Sandeep Anand",Comedy drama,Aman Film Production|Angel's Production|Brosis Production House|Worldwide Records|,https://en.wikipedia.org/wiki/Sallu_ki_Shaadi,40,--,['2017-12-08'],250000,https://boxofficeindia.com/movie.php?movieid=3676,1,1,0,0,0,0,0,0,0,0,0,0,0,0,0,0,0,0,0,0,0.0,0.0,0.0,0
107,Monsoon Shootout,Amit Kumar,"Nawazuddin Siddiqui, Vijay Varma , Tannishtha Chatterjee",Crime/thriller,Fisson Features|Moving Pictures|Sikhya Entertainment Pvt. Ltd.|Yaffle Films|,https://en.wikipedia.org/wiki/Monsoon_Shootout,250,120000000,[2017-12-15],9000000,https://boxofficeindia.com/movie.php?movieid=3683,0,0,1,0,0,0,0,1,0,0,0,0,0,0,0,0,0,0,0,0,0.0,0.0,25.0,0
108,Tiger Zinda Hai,Ali Abbas Zafar,"Salman Khan , Katrina Kaif",Action/drama,Yash Raj Films|,https://en.wikipedia.org/wiki/Tiger_Zinda_Hai,4600,2100000000,['2017-12-22'],4284300000,https://boxofficeindia.com/movie.php?movieid=3689,0,1,0,1,0,0,0,0,0,0,0,0,0,0,0,0,0,0,0,0,0.5636363636363636,1.0,2100.0,1
