,Title,Genre,Director,Cast,link,release_date,boi_link,screens,budget,studio,gross,isComedy,isDrama,isThriller,isAction,isRomance,isBiopic,isHorror,isCrime,isPeriod,isWar,isChildren,isPolitical,isSports,isAdult,isMusical,isAdventure,isPatriotic,isSocial,isNeo-noir,isDark,studio_score
0,Mr Joe B. Carvalho,Comedy,Samir Tewari,"Arshad Warsi, Soha Ali Khan, Javed Jaffrey, Vijay Raaz",https://en.wikipedia.org/wiki/Mr_Joe_B._Carvalho,3 January 2014 (2014-01-03),https://boxofficeindia.com/movie.php?movieid=2053,1050,170000000,BR Entertainment|,38300000,1,0,0,0,0,0,0,0,0,0,0,0,0,0,0,0,0,0,0,0,0.0
1,Sholay 3D,Action/Adventure,Ramesh Sippy,"Dharmendra, Amitabh Bachchan, Hema Malini, Jaya Bhaduri, Sanjeev Kumar, Amjad Khan, A.K. Hangal",https://en.wikipedia.org/wiki/Sholay#3D_re-release,15 August 1975 (1975-08-15),https://boxofficeindia.com/movie.php?movieid=3535,1,--,VR Films & Cassettes|,18750,0,0,0,1,0,0,0,0,0,0,0,0,0,0,0,1,0,0,0,0,0.0
2,Dedh Ishqiya,Black Comedy/Thriller,Abhishek Chaubey,"Naseeruddin Shah, Arshad Warsi, Madhuri Dixit, Huma Qureshi",https://en.wikipedia.org/wiki/Dedh_Ishqiya,10 January 2014 (2014-01-10),https://boxofficeindia.com/movie.php?movieid=2068,1250,370000000,Shemaroo Entertainment|Vishal Bhardwaj Pictures|,335800000,1,0,1,0,0,0,0,0,0,0,0,0,0,0,0,0,0,0,0,0,0.2727272727272727
3,Yaariyan,Romance,Divya Khosla Kumar,"Himansh Kohli, Shreyas Pardiwalla, Dev Sharma, Nicole Faria, Rakul Preet Singh",https://en.wikipedia.org/wiki/Yaariyan_(2014_film),10 January 2014 (2014-01-10),https://www.boxofficeindia.com/movie.php?movieid=2067,1400,210000000,T-Series|,517900000,0,0,0,0,1,0,0,0,0,0,0,0,0,0,0,0,0,0,0,0,0.2631578947368421
4,Karle Pyaar Karle,Romance,Rajesh Pandey,"Shiv Darshan, Hasleen Kaur",https://en.wikipedia.org/wiki/Karle_Pyaar_Karle,17 January 2014 (2014-01-17),https://www.boxofficeindia.com/movie.php?movieid=2100,1100,260000000,Shree Krishna International|,19100000,0,0,0,0,1,0,0,0,0,0,0,0,0,0,0,0,0,0,0,0,0.4
5,Miss Lovely,Drama,Ashim Ahluwalia,"Nawazuddin Siddiqui, Niharika Singh",https://en.wikipedia.org/wiki/Miss_Lovely,24 May 2012 (2012-05-24) (Cannes) 17 January 2014 (2014-01-17) (India) [1],https://boxofficeindia.com/movie.php?movieid=2099,250,50000000,Easel Films|Future East Film|White Lion Entertainment|,5200000,0,1,0,0,0,0,0,0,0,0,0,0,0,0,0,0,0,0,0,0,0.0
6,Om-Dar-Ba-Dar,Experimental,Kamal Swaroop,"Aditya Lakhia, Manish Gupta, Anita Kanwar, Gopi Desai",https://en.wikipedia.org/wiki/Om-Dar-Ba-Dar,12 February 1988 (1988-02-12) (Berlin) 17 January 2014 (2014-01-17) (India),https://boxofficeindia.com/movie.php?movieid=3535,1,--,VR Films & Cassettes|,18750,0,0,0,0,0,0,0,0,0,0,0,0,0,0,0,0,0,0,0,0,0.0
7,Paranthe Wali Gali,Romantic comedy,Sachin Gupta,"Anuj Saxena, Neha Pawar, Mohinder Gujral, Vijayant Kohli, Himanshu Thakkar, Yuvraj Haral",https://en.wikipedia.org/wiki/Paranthe_Wali_Gali,17 January 2014,https://boxofficeindia.com/movie.php?movieid=2098,75,15000000,Chilsag Motion Pictures|Civitech Motion Pictures|,900000,1,0,0,0,0,0,0,0,0,0,0,0,0,0,0,0,0,0,0,0,0.0
8,Strings Of Passion,Drama,Sanghamitra Chaudhari,"Zeenat Aman, Indrani Haldar, Shubh Mukherjee, Rajesh Sharma",https://en.wikipedia.org/wiki/Strings_Of_Passion,17 January 2014 (2014-01-17),https://www.boxofficeindia.com/movie.php?movieid=2097,10,8000000,Eon Films|Mithuntara Movies|Tricolor Creations|Y Films|,70000,0,1,0,0,0,0,0,0,0,0,0,0,0,0,0,0,0,0,0,0,0.0
9,Jai Ho,Action - comedy,Sohail Khan,"Salman Khan, Daisy Shah, Tabu, Sana Khan, Danny Denzongpa, Mohnish Behl, Vatsal Seth, Suniel Shetty, Genelia D'Souza",https://en.wikipedia.org/wiki/Jai_Ho_(film),24 January 2014 (2014-01-24),https://boxofficeindia.com/movie.php?movieid=2101,3700,1020000000,Eros International|Sohail Khan Productions|,1486400000,1,0,0,1,0,0,0,0,0,0,0,0,0,0,0,0,0,0,0,0,0.758974358974359
10,One by Two,Romance/Comedy,Devika Bhagat,"Abhay Deol, Preeti Desai, Rati Agnihotri, Jayant Kripalani, Darshan Jariwala, Lilette Dubey, Anish Trivedi",https://en.wikipedia.org/wiki/One_by_Two_(2014_film),31 January 2014 (2014-01-31),https://www.boxofficeindia.com/movie.php?movieid=678,260,120000000,Glamour Films|,112000000,1,0,0,0,1,0,0,0,0,0,0,0,0,0,0,0,0,0,0,0,0.0
11,Babloo Happy Hai,Comedy,Nila Madhab Panda,"Sahil Anand, Erica Fernandes, Preet Kamal, Sumit Suri, Amol Parashar, Reyhna Malhotra, Parvin Dabas, Anu Choudhury, Pooja Tawde, Khusbhoo Purohit, Mika Singh",https://en.wikipedia.org/wiki/Babloo_Happy_Hai,7 February 2014 (2014-02-07),https://boxofficeindia.com/movie.php?movieid=2125,275,45000000,FilmyBox Movies|Leapfrog Productions|,3000000,1,0,0,0,0,0,0,0,0,0,0,0,0,0,0,0,0,0,0,0,0.0
12,Hasee Toh Phasee,Romance/Comedy,Vinil Mathew,"Sidharth Malhotra, Parineeti Chopra, Adah Sharma",https://en.wikipedia.org/wiki/Hasee_Toh_Phasee,7 February 2014 (2014-02-07),https://www.boxofficeindia.com/movie.php?movieid=2127,1300,260000000,Dharma Productions Pvt. Ltd.|Phantom Films|,489700000,1,0,0,0,1,0,0,0,0,0,0,0,0,0,0,0,0,0,0,0,0.9621848739495799
13,Heartless,Thriller,Shekhar Suman,"Adhyayan Suman, Ariana Ayam, Om Puri, Deepti Naval, Madan Jain, Shekhar Suman",https://en.wikipedia.org/wiki/Heartless_(2014_film),7 February 2014 (2014-02-07),https://www.boxofficeindia.com/movie.php?movieid=2126,400,110000000,Windmill Entertainment|,11800000,0,0,1,0,0,0,0,0,0,0,0,0,0,0,0,0,0,0,0,0,0.0
14,Ya Rab,Drama/Social,Hasnain Hyderabadwala,"Manzar Sehbai, Ajaz Khan, Akhilendra Mishra, Raju Kher, Kishori Shahane, Vikram Singh",https://en.wikipedia.org/wiki/Ya_Rab,7 February 2014 (2014-02-07) (India),https://boxofficeindia.com/movie.php?movieid=2124,275,60000000,True Films|,3600000,0,1,0,0,0,0,0,0,0,0,0,0,0,0,0,0,0,1,0,0,0.0
15,Gunday,Action,Ali Abbas Zafar,"Ranveer Singh, Arjun Kapoor, Priyanka Chopra, Irrfan Khan",https://en.wikipedia.org/wiki/Gunday,14 February 2014 (2014-02-14),https://boxofficeindia.com/movie.php?movieid=2149,2700,510000000,Yash Raj Films|,983700000,0,0,0,1,0,0,0,0,0,0,0,0,0,0,0,0,0,0,0,0,0.5636363636363636
16,Darr @ the Mall,Horror,Pawan Kripalani,"Jimmy Shergill, Nushrat Bharucha, Arif Zakaria, Asif Basra, Nivedita Bhattacharya",https://en.wikipedia.org/wiki/Darr_@_the_Mall,21 February 2014 (2014-02-21)[1],https://boxofficeindia.com/movie.php?movieid=2175,1200,160000000,Contiloe Pictures Pvt. Ltd.|MSM Motion Pictures|,78400000,0,0,0,0,0,0,1,0,0,0,0,0,0,0,0,0,0,0,0,0,0.0
17,Dee Saturday Night,Drama,Jay Prakash,"Prashant Narayanan, Arif Zakaria, Aman Verma, Mahi Khanduri, Gaurav Dixit, Nazneen Patel",https://en.wikipedia.org/wiki/Dee_Saturday_Night,0,https://boxofficeindia.com/movie.php?movieid=2174,175,20000000,Mishka Milenium Moovies|Patlla Productions|,2000000,0,1,0,0,0,0,0,0,0,0,0,0,0,0,0,0,0,0,0,0,0.0
18,Gulabi Gang (film),Documentary,Nishtha Jain,Sampat Pal Devi,https://en.wikipedia.org/wiki/Gulabi_Gang_(film),14 December 2012 (2012-12-14) (Dubai) 21 February 2014 (2014-02-21) (India),https://boxofficeindia.com/movie.php?movieid=2173,12,2000000,Final Cut For Real|Piraya Film|Raintree Films|,337500,0,0,0,0,0,0,0,0,0,0,0,0,0,0,0,0,0,0,0,0,0.0
19,Highway,Drama/Romance,Imtiaz Ali,"Randeep Hooda, Alia Bhatt",https://en.wikipedia.org/wiki/Highway_(2014_Hindi_film),13 February 2014 (2014-02-13) (Berlin) 20 February 2014 (2014-02-20) (UAE) 21 February 2014 (2014-02-21) (Worldwide),https://boxofficeindia.com/movie.php?movieid=2176,750,250000000,Nadiadwala Grandson Entertainment|UTV Motion Pictures|Window Seat Films|,379500000,0,1,0,0,1,0,0,0,0,0,0,0,0,0,0,0,0,0,0,0,1.1801346801346801
20,Karar — The Deal,Thriller,Sabir,"Tarun Arora, Mahek Chahal, Jyothi Rana",https://en.wikipedia.org/wiki/Karar:_The_Deal,21 February 2014,https://boxofficeindia.com/movie.php?movieid=2178,1,8500000,Shri Cine Arts|,5800000,0,0,1,0,0,0,0,0,0,0,0,0,0,0,0,0,0,0,0,0,0.0
21,Anuradha,Drama,Raju Mavani,"Sachin Khedekar, Smita Jaykar, Disha Choudhary, Shagun Sharma, Rahul Jain, Manoj Joshi, Kishori Shahane, Hrishitaa Bhatt, Aakash Sharma, Raju Mavani, Ganesh Acharya, Manoj Tiwari, Prashant Upadhyay",https://en.wikipedia.org/wiki/Anuradha_(2014_Hindi_film),28 February 2014 (2014-02-28),https://boxofficeindia.com/movie.php?movieid=2194,100,17500000,Shiv Shakti Entertainment Production|,675000,0,1,0,0,0,0,0,0,0,0,0,0,0,0,0,0,0,0,0,0,0.0
22,Shaadi Ke Side Effects,Romance/Comedy,Saket Chaudhary,"Farhan Akhtar, Vidya Balan, Vir Das, Ram Kapoor, Gautami Kapoor, Ila Arun, Hariharan, Purab Kohli, Rati Agnihotri",https://en.wikipedia.org/wiki/Shaadi_Ke_Side_Effects,28 February 2014 (2014-02-28),https://www.boxofficeindia.com/movie.php?movieid=2195,1900,430000000,Balaji Motion Pictures|Pritish Nandy Communications|,511800000,1,0,0,0,1,0,0,0,0,0,0,0,0,0,0,0,0,0,0,0,0.4230769230769231
23,Gulaab Gang,Social/Action,Soumik Sen,"Madhuri Dixit, Juhi Chawla",https://en.wikipedia.org/wiki/Gulaab_Gang,7 March 2014 (2014-03-07),https://boxofficeindia.com/movie.php?movieid=2201,1700,290000000,Benaras Mediaworks|Sahara One Motion Pictures|,142100000,0,0,0,1,0,0,0,0,0,0,0,0,0,0,0,0,0,1,0,0,0.0
24,Queen,Romance/Drama,Vikas Bahl,"Kangana Ranaut, Rajkummar Rao, Lisa Haydon",https://en.wikipedia.org/wiki/Queen_(2014_film),October 2013 (2013-10) (Busan) 7 March 2014 (2014-03-07),https://boxofficeindia.com/movie.php?movieid=2199,800,230000000,Phantom Films|Viacom 18 Motion Pictures|,816800000,0,1,0,0,1,0,0,0,0,0,0,0,0,0,0,0,0,0,0,0,0.5773809523809523
25,Total Siyapaa,Drama/Comedy,E Niwas,"Ali Zafar, Yami Gautam, Sara Khan, Anupam Kher, Kiron Kher",https://en.wikipedia.org/wiki/Total_Siyapaa,7 March 2014 (2014-03-07),https://www.boxofficeindia.com/movie.php?movieid=2200,850,170000000,AKA Pictures Company Limited|Friday Filmworks Pvt. Ltd.|Reliance Entertainment|,77200000,1,1,0,0,0,0,0,0,0,0,0,0,0,0,0,0,0,0,0,0,0.7307692307692308
26,Bewakoofiyaan,Romance,Nupur Asthana,"Ayushmann Khurrana, Sonam Kapoor, Rishi Kapoor",https://en.wikipedia.org/wiki/Bewakoofiyaan,14 March 2014 (2014-03-14) [1],https://www.boxofficeindia.com/movie.php?movieid=2205,1100,220000000,Yash Raj Films|,187900000,0,0,0,0,1,0,0,0,0,0,0,0,0,0,0,0,0,0,0,0,0.5636363636363636
27,Neighbours: They Are Vampires,Horror,Shyam Ramsay,"Arbaaz Ali Khan, Roushika Reikhi, Shakti Kapoor, Gavie Chahal, Rufy Khan, Hritu Dudani, Kirti Vaidhya, Prince Sodhi, Sunny Singh",https://en.wikipedia.org/wiki/Neighbours:_They_Are_Vampires,14 March 2014,https://boxofficeindia.com/movie.php?movieid=2204,225,17500000,Ramsay Entertainment|,5900000,0,0,0,0,0,0,1,0,0,0,0,0,0,0,0,0,0,0,0,0,0.0
28,W,Thriller,Tarun Madan Chopra,"Danish Pandor, Raaj Singh Arora, Leslie Tripathy, Sonal Giani, Meer Ali, Abhey Attri",https://en.wikipedia.org/wiki/W_(2014_film),14 March 2014 (2014-03-14),https://boxofficeindia.com/movie.php?movieid=2208,150,47500000,Mithya Talkies|,11100000,0,0,1,0,0,0,0,0,0,0,0,0,0,0,0,0,0,0,0,0,0.0
29,Ankhon Dekhi,Comedy,Rajat Kapoor,"Sanjay Mishra, Rajat Kapoor, Samit Das, Brijendra Kala",https://en.wikipedia.org/wiki/Ankhon_Dekhi,5 December 2013 (2013-12-05) (SAIFF)[1] 21 March 2014 (2014-03-21) (India),https://boxofficeindia.com/movie.php?movieid=2208,150,47500000,Mithya Talkies|,11100000,1,0,0,0,0,0,0,0,0,0,0,0,0,0,0,0,0,0,0,0,0.0
30,Gang of Ghosts,Horror Comedy,Satish Kaushik,"Parambrata Chatterjee, Sharman Joshi, Mahie Gill, Anupam Kher, Meera Chopra, Saurabh Shukla, Chunky Pandey",https://en.wikipedia.org/wiki/Gang_of_Ghosts,21 March 2014 (2014-03-21),https://boxofficeindia.com/movie.php?movieid=2209,900,160000000,The Satish Kaushik Entertainment|Venus Records & Tapes Pvt. Ltd.|,24300000,1,0,0,0,0,0,1,0,0,0,0,0,0,0,0,0,0,0,0,0,0.4090909090909091
31,Lakshmi,Drama,Nagesh Kukunoor,"Monali Thakur, Satish Kaushik, Shefali Shetty, Ram Kapoor",https://en.wikipedia.org/wiki/Lakshmi_(2014_film),21 March 2014 (2014-03-21) (Palm Springs),https://boxofficeindia.com/movie.php?movieid=2207,100,40000000,Kukunoor Movies|Pen India Pvt. Ltd.|UV News Media & Communication Ltd.|,3900000,0,1,0,0,0,0,0,0,0,0,0,0,0,0,0,0,0,0,0,0,0.0
32,Ragini MMS 2,Horror/Adult,Bhushan Patel,"Sunny Leone, Parvin Dabas, Divya Dutta",https://en.wikipedia.org/wiki/Ragini_MMS_2,21 March 2014 (2014-03-21),https://boxofficeindia.com/movie.php?movieid=2210,2300,190000000,ALT Entertainment|Balaji Motion Pictures|,627500000,0,0,0,0,0,0,1,0,0,0,0,0,0,1,0,0,0,0,0,0,1.0064102564102564
33,Dishkiyaoon,Action,Sanamjit Talwar,"Sunny Deol, Harman Baweja, Ayesha Khanna, Prashant Narayanan",https://en.wikipedia.org/wiki/Dishkiyaoon,28 March 2014 (2014-03-28),https://boxofficeindia.com/movie.php?movieid=2214,1550,39000000,Eros International|Essential Sports & Media Pvt. Ltd.|,62300000,0,0,0,1,0,0,0,0,0,0,0,0,0,0,0,0,0,0,0,0,0.35897435897435903
34,O Teri,Comedy,Umesh Bist,"Pulkit Samrat, Sarah-Jane Dias, Bilal Amrohi, Anupam Kher, Mandira Bedi, Vijay Raaz, Manoj Pahwa",https://en.wikipedia.org/wiki/O_Teri,28 March 2014 (2014-03-28),https://boxofficeindia.com/movie.php?movieid=2212,900,150000000,Reel Life Productions|,48200000,1,0,0,0,0,0,0,0,0,0,0,0,0,0,0,0,0,0,0,0,0.0
35,Station: The Film,Thriller,Saad Khan,"Sameer Kevin Roy, Kanika Batra, Vibhinta Verma, Siddhanth Sundar",https://en.wikipedia.org/wiki/Station:_The_Film,28 March 2014 (2014-03-28)[1],https://boxofficeindia.com/movie.php?movieid=1103,275,90000000,Plus Entertainment Pvt. Ltd.|,9700000,0,0,1,0,0,0,0,0,0,0,0,0,0,0,0,0,0,0,0,0,0.0
36,Youngistaan,Drama,Syed Ahmad Afzal,"Jackky Bhagnani, Neha Sharma, Farooq Shaikh, Boman Irani",https://en.wikipedia.org/wiki/Youngistaan,28 March 2014 (2014-03-28),https://www.boxofficeindia.com/movie.php?movieid=2213,1000,280000000,MSM Motion Pictures|Puja Entertainment Ltd.|,94500000,0,1,0,0,0,0,0,0,0,0,0,0,0,0,0,0,0,0,0,0,0.1851851851851852
37,Honour Killing,Social,Avtar Bhogal,"Zara Sheikh, Sandeep Singh, Tom Alter, Gulshan Grover, Prem Chopra",https://en.wikipedia.org/wiki/Honour_Killing_(film),27 February 2015 (2015-02-27),https://boxofficeindia.com/movie.php?movieid=2479,35,--,ABC Films International|Ek Onkar Films Ltd.|,750000,0,0,0,0,0,0,0,0,0,0,0,0,0,0,0,0,0,1,0,0,0.0
38,Jal,Drama/Fantasy,Girish Malik,"Purab Kohli, Tannishtha Chatterjee, Kirti Kulhari, Yashpal Sharma",https://en.wikipedia.org/wiki/Jal_(film),6 October 2013 (2013-10-06) (BIFF) 4 April 2014 (2014-04-04) (India),https://boxofficeindia.com/movie.php?movieid=2218,275,60000000,Clapstream Productions|NFDC|One World Films|,7000000,0,1,0,0,0,0,0,0,0,0,0,0,0,0,0,0,0,0,0,0,0.0
39,Main Tera Hero,Comedy,David Dhawan,"Varun Dhawan, Ileana D'Cruz, Nargis Fakhri, Abhimanyu Singh, Evelyn Sharma",https://en.wikipedia.org/wiki/Main_Tera_Hero,4 April 2014 (2014-04-04),https://www.boxofficeindia.com/movie.php?movieid=2219,2400,410000000,Balaji Motion Pictures|,718200000,1,0,0,0,0,0,0,0,0,0,0,0,0,0,0,0,0,0,0,0,0.4230769230769231
40,Bhoothnath Returns,Fantasy/Children,Nitesh Tiwari,"Amitabh Bachchan, Parth Bhalerao, Boman Irani, Anurag Kashyap, Usha Jadhav",https://en.wikipedia.org/wiki/Bhoothnath_Returns,11 April 2014 (2014-04-11),https://boxofficeindia.com/movie.php?movieid=2220,1500,360000000,B.R. Films|T-Series|,459700000,0,0,0,0,0,0,0,0,0,0,1,0,0,0,0,0,0,0,0,0,0.2631578947368421
41,2 States,Romance,Abhishek Varman,"Arjun Kapoor, Alia Bhatt, Amrita Singh, Ronit Roy",https://en.wikipedia.org/wiki/2_States_(film),18 April 2014 (2014-04-18),https://boxofficeindia.com/movie.php?movieid=2228,1900,450000000,Dharma Productions Pvt. Ltd.|Nadiadwala Grandson Entertainment|UTV Motion Pictures|,1377100000,0,0,0,0,1,0,0,0,0,0,0,0,0,0,0,0,0,0,0,0,1.8566052683699743
42,Dekh Tamasha Dekh,Comedy,Feroz Abbas Khan,"Satish Kaushik, Ganesh Yadav",https://en.wikipedia.org/wiki/Dekh_Tamasha_Dekh,18 April 2014 (2014-04-18),https://www.boxofficeindia.com/movie.php?movieid=2226,125,22500000,Bombay Local Pictures|Eros International|,2600000,1,0,0,0,0,0,0,0,0,0,0,0,0,0,0,0,0,0,0,0,0.35897435897435903
43,Lucky Kabootar,Romance/Comedy,Shammi Chhabra,"Ravi Kishan, Eijaz Khan, Kulraj Randhawa, Shraddha Das, Sanjai Mishra, Madhavi Sharma",https://en.wikipedia.org/wiki/Lucky_Kabootar,18 April 2014 (2014-04-18),https://boxofficeindia.com/movie.php?movieid=2227,375,70000000,Inderjit Films Combine|,4200000,1,0,0,0,1,0,0,0,0,0,0,0,0,0,0,0,0,0,0,0,0.0
44,Kaanchi...,Musical/Drama,Subhash Ghai,"Mishti, Kartik Aaryan, Rishi Kapoor, Mithun Chakraborty",https://en.wikipedia.org/wiki/Kaanchi...,25 April 2014 (2014-04-25)[2],https://boxofficeindia.com/movie.php?movieid=2233,1250,240000000,Mukta Arts|,53000000,0,1,0,0,0,0,0,0,0,0,0,0,0,0,1,0,0,0,0,0,0.29411764705882354
45,Revolver Rani,Drama,Sai Kabir,"Kangana Ranaut, Vir Das, Piyush Mishra, Zakir Hussain",https://en.wikipedia.org/wiki/Revolver_Rani,25 April 2014 (2014-04-25),https://boxofficeindia.com/movie.php?movieid=2234,1600,270000000,Crouching Tiger Motion Pictures|Moving Pictures|Wave Cinemas|,118700000,0,1,0,0,0,0,0,0,0,0,0,0,0,0,0,0,0,0,0,0,0.0
46,Samrat & Co.,Mystery/Thriller/Drama,Kaushik Ghatak,"Rajeev Khandelwal, Madalasa Sharma",https://en.wikipedia.org/wiki/Samrat_%26_Co.,25 April 2014 (2014-04-25),https://boxofficeindia.com/movie.php?movieid=2232,625,150000000,Rajshri Productions Pvt. Ltd.|,21300000,0,1,1,0,0,0,0,0,0,0,0,0,0,0,0,0,0,0,0,0,0.3333333333333333
47,Purani Jeans,Romance/Drama,Tanushri Chattrji Bassu,"Tanuj Virwani, Aditya Seal, Izabelle Leite, Sarika, Rati Agnihotri",https://en.wikipedia.org/wiki/Purani_Jeans,2 May 2014 (2014-05-02),https://boxofficeindia.com/movie.php?movieid=2238,625,110000000,Eros International|Next Gen Films|,18600000,0,1,0,0,1,0,0,0,0,0,0,0,0,0,0,0,0,0,0,0,0.35897435897435903
48,Kya Dilli Kya Lahore,Social,Vijay Raaz,"Vijay Raaz, Manu Rishi, Raj Zutshi, Vishwajeet Pradhan",https://en.wikipedia.org/wiki/Kya_Dilli_Kya_Lahore,2 May 2014 (2014-05-02),https://boxofficeindia.com/movie.php?movieid=2237,400,55000000,Picture Thoughts Production Pvt. Ltd.|Wave Cinemas|,8900000,0,0,0,0,0,0,0,0,0,0,0,0,0,0,0,0,0,1,0,0,0.0
49,Angry Young Man,Action,Ramesh Rout,"Ajay Sinh Rathod, Prachi Sinha",https://en.wikipedia.org/wiki/Angry_Young_Man_(film),11 April 2014 (2014-04-11),https://www.boxofficeindia.com/movie.php?movieid=2236,300,47500000,Vsr Films|,2325000,0,0,0,1,0,0,0,0,0,0,0,0,0,0,0,0,0,0,0,0,0.0
50,Kahin Hai Mera Pyar,Romance,Mahesh Vaijnath Doijode,"Abhishek Sethiya, Sonia Mann, Sanjay Kapoor, Jackie Shroff",https://en.wikipedia.org/wiki/Kahin_Hai_Mera_Pyar,1 May 2014 (2014-05-01),https://boxofficeindia.com/movie.php?movieid=2235,275,45000000,Mohini Arts International|,2275000,0,0,0,0,1,0,0,0,0,0,0,0,0,0,0,0,0,0,0,0,0.0
51,Hawaa Hawaai,Drama,Amole Gupte,"Partho Gupte, Saqib Saleem, Pragya Yadav",https://en.wikipedia.org/wiki/Hawaa_Hawaai,9 May 2014 (2014-05-09),https://boxofficeindia.com/movie.php?movieid=2243,625,110000000,Amole Gupte Cinema Pvt. Ltd.|Fox Star Studio India Pvt. Ltd.|,113600000,0,1,0,0,0,0,0,0,0,0,0,0,0,0,0,0,0,0,0,0,0.3783783783783784
52,Khwaabb,Romance/Drama,Zaid Ali Khan,"Navdip Singh, Simer Motiani, Nafisa Ali, Bajrang Bali Singh",https://en.wikipedia.org/wiki/Khwaabb,9 May 2014 (2014-05-09),https://boxofficeindia.com/movie.php?movieid=2239,50,40000000,Bullseye Productions|,975000,0,1,0,0,1,0,0,0,0,0,0,0,0,0,0,0,0,0,0,0,0.0
53,Koyelaanchal,Action,Ashu Trikha,"Vinod Khanna, Suniel Shetty, Vipino",https://en.wikipedia.org/wiki/Koyelaanchal,9 May 2014 (2014-05-09),https://boxofficeindia.com/movie.php?movieid=2244,900,140000000,A.M.A. Entertainment|,22900000,0,0,0,1,0,0,0,0,0,0,0,0,0,0,0,0,0,0,0,0,0.0
54,Manjunath,Drama,Sandeep A. Varma,"Divya Dutta, Seema Biswas, Asif Basra, Yashpal Sharma",https://en.wikipedia.org/wiki/Manjunath_(Film),9 May 2014 (2014-05-09)[1],https://boxofficeindia.com/movie.php?movieid=2240,175,55000000,Icomo|NFDC|Viacom 18 Motion Pictures|,4550000,0,1,0,0,0,0,0,0,0,0,0,0,0,0,0,0,0,0,0,0,0.2916666666666667
55,Mastram,Adult,Akhilesh Jaiswal,"Rahul Bagga, Tasha Berry",https://en.wikipedia.org/wiki/Mastram,October 2013 (2013-10) (Mumbai Film Festival) 9 May 2014 (2014-05-09) (India),https://boxofficeindia.com/movie.php?movieid=2242,800,60000000,Bohra Bros|Jar Pictures Pvt. Ltd.|,47100000,0,0,0,0,0,0,0,0,0,0,0,0,0,1,0,0,0,0,0,0,0.0
56,Yeh Hai Bakrapur,Comedy,Janaki Vishwanathan,"Anshuman Jha, Asif Basra, Amit Sial, Uttkarsh Majumdar, Faiz Mohammad, Suruchi Aulakh, Yaushika Verma, Shamim Khan",https://en.wikipedia.org/wiki/Yeh_Hai_Bakrapur,October 2013 (2013-10) (Mumbai Film Festival) 9 May 2014 (2014-05-09) (India),https://boxofficeindia.com/movie.php?movieid=2241,200,50000000,Shruthikkaa Films|,2250000,1,0,0,0,0,0,0,0,0,0,0,0,0,0,0,0,0,0,0,0,0.0
57,The Xposé,Thriller,Ananth Narayan Mahadevan,"Himesh Reshammiya, Zoya Afroz, Sonali Raut, Yo Yo Honey Singh, Adil Hussain",https://en.wikipedia.org/wiki/The_Xpos%C3%A9,16 May 2014 (2014-05-16),https://boxofficeindia.com/movie.php?movieid=2248,1050,150000000,HR Musik|,129600000,0,0,1,0,0,0,0,0,0,0,0,0,0,0,0,0,0,0,0,0,0.0
58,Children of War,Drama,Mrityunjay Devvrat,"Farooq Shaikh, Victor Banerjee, Pawan Malhotra, Indraneil Sengupta",https://en.wikipedia.org/wiki/Children_of_War_(2014_film),16 May 2014 (2014-05-16),https://boxofficeindia.com/movie.php?movieid=2245,275,90000000,Maktub Entertainment|Pencil Cell Production|,7500000,0,1,0,0,0,0,0,0,0,0,0,0,0,0,0,0,0,0,0,0,0.0
59,M3 - Midsummer Midnight Mumbai,Mystery,Braj Bhushan,"Paras Chhabra, Sara Khan, M.A. Guddu, Pooja Thakur",https://en.wikipedia.org/wiki/M3_-_Midsummer_Midnight_Mumbai,16 May 2014 (2014-05-16),https://boxofficeindia.com/movie.php?movieid=2247,300,42500000,Gudnet Productions|,3550000,0,0,0,0,0,0,0,0,0,0,0,0,0,0,0,0,0,0,0,0,0.0
60,Heropanti,Romance/Action,Sabbir Khan,"Tiger Shroff, Kriti Sanon",https://en.wikipedia.org/wiki/Heropanti,23 May 2014 (2014-05-23),https://boxofficeindia.com/movie.php?movieid=2249,2200,250000000,Nadiadwala Grandson Entertainment|,685300000,0,0,0,1,1,0,0,0,0,0,0,0,0,0,0,0,0,0,0,0,0.7727272727272727
61,Kochadaiiyaan,Action,Soundarya Rajnikanth,"Rajinikanth, Deepika Padukone, Jackie Shroff, Shobana",https://en.wikipedia.org/wiki/Kochadaiiyaan,23 May 2014 (2014-05-23),https://www.boxofficeindia.com/movie.php?movieid=2273,1250,260000000,Born Free Entertainment Pvt. Ltd.|Reliance Entertainment|,161700000,0,0,0,1,0,0,0,0,0,0,0,0,0,0,0,0,0,0,0,0,0.2307692307692308
62,City Lights,Drama,Hansal Mehta,"Rajkummar Rao, Patralekha",https://en.wikipedia.org/wiki/City_Lights_(2014_film),30 May 2014 (2014-05-30),https://boxofficeindia.com/movie.php?movieid=2253,450,90000000,Fox Star Studio India Pvt. Ltd.|Vishesh Films Pvt. Ltd.|,89900000,0,1,0,0,0,0,0,0,0,0,0,0,0,0,0,0,0,0,0,0,0.7192874692874693
63,Kuku Mathur Ki Jhand Ho Gayi,Comedy,Aman Sachdeva,"Siddharth Gupta, Simran Kaur Mundi, Pallavi Batra",https://en.wikipedia.org/wiki/Kuku_Mathur_Ki_Jhand_Ho_Gayi,30 May 2014 (2014-05-30),https://boxofficeindia.com/movie.php?movieid=2252,600,65000000,ALT Entertainment|Balaji Motion Pictures|Getaway Films|,19400000,1,0,0,0,0,0,0,0,0,0,0,0,0,0,0,0,0,0,0,0,1.0064102564102564
64,Filmistaan,Comedy,Nitin Kakkar,"Sharib Hashmi, Inaamulhaq, Kumud Mishra, Gopal Dutt",https://en.wikipedia.org/wiki/Filmistaan,"October 17, 2012 (2012-10-17) (Busan International Film Festival) June 6, 2014 (2014-06-06) (India)",https://boxofficeindia.com/movie.php?movieid=2255,450,75000000,Satellite Pictures|Shringar Films Pvt. Ltd.|UTV Motion Pictures|,90500000,1,0,0,0,0,0,0,0,0,0,0,0,0,0,0,0,0,0,0,0,0.4074074074074074
65,Holiday,Action/Thriller,A.R. Murugadoss,"Akshay Kumar, Sonakshi Sinha, Govinda",https://en.wikipedia.org/wiki/Holiday_(2014_film),6 June 2014 (2014-06-06),https://boxofficeindia.com/movie.php?movieid=2256,3300,860000000,Hari Om Entertainment|Reliance Entertainment|Sunshine Pictures Ltd.|,1517600000,0,0,1,1,0,0,0,0,0,0,0,0,0,0,0,0,0,0,0,0,0.6307692307692309
66,Fugly,Comedy/Drama,Kabir Sadanand,"Jimmy Shergill, Mohit Marwah, Kiara Advani, Vijender Singh, Arfi Lamba",https://en.wikipedia.org/wiki/Fugly_(2014_film),13 June 2014 (2014-06-13),https://boxofficeindia.com/movie.php?movieid=2262,950,180000000,Grazing Goat Pictures Pvt. Ltd.|,143200000,1,1,0,0,0,0,0,0,0,0,0,0,0,0,0,0,0,0,0,0,0.0
67,Machhli Jal Ki Rani Hai,Horror,Debaloy Dey,"Bhanu Uday, Swara Bhaskar, Murli Sharma, Reema Debnath, Sakha Kalyani Deepraj Rana",https://en.wikipedia.org/wiki/Machhli_Jal_Ki_Rani_Hai,0,https://www.boxofficeindia.com/movie.php?movieid=2261,600,55000000,Shri Wardhman Movie Ventures |,18100000,0,0,0,0,0,0,1,0,0,0,0,0,0,0,0,0,0,0,0,0,0.0
68,Humshakals,Comedy/Drama/Romance,Sajid Khan,"Saif Ali Khan, Esha Gupta, Riteish Deshmukh, Bipasha Basu, Ram Kapoor, Tamannaah Bhatia",https://en.wikipedia.org/wiki/Humshakals,20 June 2014 (2014-06-20),https://boxofficeindia.com/movie.php?movieid=2269,2800,640000000,Fox Star Studio India Pvt. Ltd.|Puja Entertainment Ltd.|,710000000,1,1,0,0,1,0,0,0,0,0,0,0,0,0,0,0,0,0,0,0,0.5635635635635636
69,Ek Villain,Romance/Thriller,Mohit Suri,"Sidharth Malhotra, Riteish Deshmukh, Shraddha Kapoor, Aamna Sharif",https://en.wikipedia.org/wiki/Ek_Villain,27 June 2014 (2014-06-27),https://boxofficeindia.com/movie.php?movieid=2271,2500,390000000,Balaji Motion Pictures|,1312800000,0,0,1,0,1,0,0,0,0,0,0,0,0,0,0,0,0,0,0,0,0.4230769230769231
70,Bobby Jasoos,Comedy/Drama,Samar Shaikh,"Vidya Balan, Ali Fazal, Arjan Bajwa, Anupriya Kapoor, Supriya Pathak, Tanvi Azmi",https://en.wikipedia.org/wiki/Bobby_Jasoos,4 July 2014 (2014-07-04),https://www.boxofficeindia.com/movie.php?movieid=2273,1250,260000000,Born Free Entertainment Pvt. Ltd.|Reliance Entertainment|,161700000,1,1,0,0,0,0,0,0,0,0,0,0,0,0,0,0,0,0,0,0,0.2307692307692308
71,Lekar Hum Deewana Dil,Romance/Comedy,Arif Ali,"Armaan Jain, Deeksha Seth, Nikita Dutta",https://en.wikipedia.org/wiki/Lekar_Hum_Deewana_Dil,4 July 2014 (2014-07-04)[1],https://boxofficeindia.com/movie.php?movieid=2272,875,28200000,Eros International|Illuminati Films|Maddock Films|,40600000,1,0,0,0,1,0,0,0,0,0,0,0,0,0,0,0,0,0,0,0,0.35897435897435903
72,Humpty Sharma Ki Dulhania,Romance/Comedy,Shashank Khaitan,"Varun Dhawan, Alia Bhatt, Siddharth Shukla",https://en.wikipedia.org/wiki/Humpty_Sharma_Ki_Dulhania,11 July 2014 (2014-07-11),https://boxofficeindia.com/movie.php?movieid=2279,1950,330000000,Dharma Productions Pvt. Ltd.|,968400000,1,0,0,0,1,0,0,0,0,0,0,0,0,0,0,0,0,0,0,0,0.6764705882352942
73,Hate Story 2,Thriller,Vishal Pandya,"Surveen Chawla, Sushant Singh, Jay Bhanushali, Siddharth Kher, Rajesh Khera",https://en.wikipedia.org/wiki/Hate_Story_2,18 July 2014 (2014-07-18),https://www.boxofficeindia.com/movie.php?movieid=2285,1800,150000000,T-Series|,310700000,0,0,1,0,0,0,0,0,0,0,0,0,0,0,0,0,0,0,0,0,0.2631578947368421
74,Bazaar-E-Husn,Drama,Ajay Mehra,"Om Puri, Reshmi Ghosh, Yashpal Sharma, Jeet Goshwami",https://en.wikipedia.org/wiki/Bazaar_E_Husn,18 July 2014 (2014-07-18)[1],https://www.boxofficeindia.com/movie.php?movieid=2280,10,4500000,Vision Corporation Ltd.|,100000,0,1,0,0,0,0,0,0,0,0,0,0,0,0,0,0,0,0,0,0,0.0
75,Riyasat,Drama/Action,Ashok Tyagi,"Rajesh Khanna, Aryaman Ramsay, Aryan Vaid, Raja Murad, Vishwajeet Pradhan",https://en.wikipedia.org/wiki/Riyasat_(film),18 July 2014 (2014-07-18)[1],https://www.boxofficeindia.com/movie.php?movieid=2282,30,5000000,Land Craft|Vijay Sirohi Productions|,425000,0,1,0,1,0,0,0,0,0,0,0,0,0,0,0,0,0,0,0,0,0.0
76,Amit Sahni Ki List,Romance/Comedy,Ajay Bhuyan,"Vir Das, Vega Tamotia, Anindita Nayar, Kavi Shastri",https://en.wikipedia.org/wiki/Amit_Sahni_Ki_List,18 July 2014 (2014-07-18),https://boxofficeindia.com/movie.php?movieid=2284,450,70000000,Pyxis Pictures|,7600000,1,0,0,0,1,0,0,0,0,0,0,0,0,0,0,0,0,0,0,0,0.0
77,Pizza,Horror,Akshay Akkineni,"Akshay Oberoi, Parvathy Omanakuttan, Dipannita Sharma",https://en.wikipedia.org/wiki/Pizza_(2014_film),18 July 2014 (2014-07-18),https://boxofficeindia.com/movie.php?movieid=2283,600,100000000,Getaway Films|UTV Motion Pictures|,44800000,0,0,0,0,0,0,1,0,0,0,0,0,0,0,0,0,0,0,0,0,0.4074074074074074
78,Kick,Action/Comedy,Sajid Nadiadwala,"Salman Khan, Jacqueline Fernandez, Nawazuddin Siddiqui, Randeep Hooda",https://en.wikipedia.org/wiki/Kick_(2014_Film),25 July 2014 (2014-07-25),https://boxofficeindia.com/movie.php?movieid=2286,3800,1400000000,Nadiadwala Grandson Entertainment|UTV Motion Pictures|,2835200000,1,0,0,1,0,0,0,0,0,0,0,0,0,0,0,0,0,0,0,0,1.1801346801346801
79,Entertainment,Comedy,Sajid-Farhad,"Akshay Kumar, Tamannaah Bhatia, Prakash Raj, Sonu Sood, Mithun Chakraborty",https://en.wikipedia.org/wiki/Entertainment_(2014_film),8 August 2014 (2014-08-08),https://boxofficeindia.com/movie.php?movieid=2288,2850,810000000,Pen India Pvt. Ltd.|Tips Industries Pvt. Ltd.|,878700000,1,0,0,0,0,0,0,0,0,0,0,0,0,0,0,0,0,0,0,0,0.4
80,Singham Returns,Action,Rohit Shetty,"Ajay Devgn, Kareena Kapoor Khan, Amol Gupte, Anupam Kher",https://en.wikipedia.org/wiki/Singham_Returns,15 August 2014 (2014-08-15),https://boxofficeindia.com/movie.php?movieid=2289,3500,1050000000,Ajay Devgn Films|Reliance Entertainment|Rohit Shetty Productions|,1914800000,0,0,0,1,0,0,0,0,0,0,0,0,0,0,0,0,0,0,0,0,0.7307692307692308
81,Life is Beautiful!,Romance,Manoj Amarnani,"Manoj Amarnani, Anokhi Dalvi, Nancy Brunetta, Parth Naik, Raj Zutshi",https://en.wikipedia.org/wiki/Life_Is_Beautiful_(2014_film),22 August 2014 (2014-08-22),https://www.boxofficeindia.com/movie.php?movieid=2295,150,37500000,Essel Vision Productions Ltd.|Paanch Rupaiya Barah Aana |Sunday Talkies|,2700000,0,0,0,0,1,0,0,0,0,0,0,0,0,0,0,0,0,0,0,0,0.0
82,Mad About Dance,Dance,Saahil Prem,"Saahil Prem, Amrit Maghera",https://en.wikipedia.org/wiki/Mad_About_Dance,22 August 2014 (2014-08-22),https://www.boxofficeindia.com/movie.php?movieid=2295,150,37500000,Essel Vision Productions Ltd.|Paanch Rupaiya Barah Aana |Sunday Talkies|,2700000,0,0,0,0,0,0,0,0,0,0,0,0,0,0,0,0,0,0,0,0,0.0
83,Mardaani,Drama/Action,Pradeep Sarkar,"Rani Mukerji, Jisshu Sengupta",https://en.wikipedia.org/wiki/Mardaani,22 August 2014 (2014-08-22),https://www.boxofficeindia.com/movie.php?movieid=2296,1250,210000000,Yash Raj Films|,473200000,0,1,0,1,0,0,0,0,0,0,0,0,0,0,0,0,0,0,0,0,0.5636363636363636
84,Mumbhai Connection,Comedy,Atlanta Nagendra,"Rafiq Batcha, Srinivas, Dick Mays, Alieesa Badresia",https://en.wikipedia.org/wiki/Mumbhai_Connection,24 September 2011 (2011-09-24) (Dixie Film Festival) 22 August 2014 (2014-08-22) (India),https://www.boxofficeindia.com/movie.php?movieid=330,175,35000000,UTV Motion Pictures|,48900000,1,0,0,0,0,0,0,0,0,0,0,0,0,0,0,0,0,0,0,0,0.4074074074074074
85,Abhinay Chakra,Comedy/Action,Deepankar Senapati,"Govinda, Ashutosh Rana, Murali Sharma, Makrand Deshpande, Harish Kumar, Richa Sharma",https://en.wikipedia.org/wiki/Abhinay_Chakra,17 March 2017 (2017-03-17) [1],https://boxofficeindia.com/movie.php?movieid=258,1100,280000000,Sohail Khan Productions|,845700000,1,0,0,1,0,0,0,0,0,0,0,0,0,0,0,0,0,0,0,0,0.4
86,Raja Natwarlal,Thriller,Kunal Deshmukh,"Emraan Hashmi, Humaima Malick, Paresh Rawal, Deepak Tijori, Kay Kay Menon",https://en.wikipedia.org/wiki/Raja_Natwarlal,29 August 2014 (2014-08-29),https://www.boxofficeindia.com/movie.php?movieid=2297,1950,470000000,UTV Motion Pictures|,319000000,0,0,1,0,0,0,0,0,0,0,0,0,0,0,0,0,0,0,0,0,0.4074074074074074
87,Mary Kom,Drama,Omung Kumar,"Priyanka Chopra, Minakkshi Kalitaa, Zachary Coffin",https://en.wikipedia.org/wiki/Mary_Kom_(film),5 September 2014 (2014-09-05),https://boxofficeindia.com/movie.php?movieid=2298,1900,380000000,Sanjay Leela Bhansali Films|Viacom 18 Motion Pictures|,737200000,0,1,0,0,0,0,0,0,0,0,0,0,0,0,0,0,0,0,0,0,0.875
88,Creature,Horror,Vikram Bhatt,"Bipasha Basu, Imran Abbas",https://en.wikipedia.org/wiki/Creature_3D,12 September 2014 (2014-09-12),https://boxofficeindia.com/movie.php?movieid=2301,1300,250000000,T-Series|,197200000,0,0,0,0,0,0,1,0,0,0,0,0,0,0,0,0,0,0,0,0,0.2631578947368421
89,Finding Fanny,Comedy/Drama,Homi Adajania,"Naseeruddin Shah, Dimple Kapadia, Pankaj Kapur, Deepika Padukone, Arjun Kapoor",https://en.wikipedia.org/wiki/Finding_Fanny,12 September 2014 (2014-09-12),https://www.boxofficeindia.com/movie.php?movieid=2300,875,290000000,Fox Star Studio India Pvt. Ltd.|Maddock Films|,378000000,1,1,0,0,0,0,0,0,0,0,0,0,0,0,0,0,0,0,0,0,0.3783783783783784
90,Daawat-E-Ishq,Comedy/Drama,Habib Faisal,"Aditya Roy Kapur, Parineeti Chopra, Anupam Kher",https://en.wikipedia.org/wiki/Daawat-E-Ishq,19 September 2014 (2014-09-19) [1][2],https://www.boxofficeindia.com/movie.php?movieid=2303,1900,320000000,Yash Raj Films|,341300000,1,1,0,0,0,0,0,0,0,0,0,0,0,0,0,0,0,0,0,0,0.5636363636363636
91,Khoobsurat,Romance/Comedy,Shashanka Ghosh,"Sonam Kapoor, Fawad Khan, Kiron Kher, Ratna Pathak, Aamir Raza Hussain",https://en.wikipedia.org/wiki/Khoobsurat_(2014_film),19 September 2014 (2014-09-19),https://boxofficeindia.com/movie.php?movieid=2302,1150,230000000,Anil Kapoor Films Company|UTV Motion Pictures|,335400000,1,0,0,0,1,0,0,0,0,0,0,0,0,0,0,0,0,0,0,0,0.4074074074074074
92,3 A.M.,Horror,Vishal Mahadkar,"Rannvijay Singh, Anindita Nayar, Salil Acharya, Kavin Dave",https://en.wikipedia.org/wiki/3_A.M._(2014_film),26 September 2014 (2014-09-26),https://boxofficeindia.com/movie.php?movieid=2314,500,85000000,Essel Vision Productions Ltd.|Handprint Pictures|,14900000,0,0,0,0,0,0,1,0,0,0,0,0,0,0,0,0,0,0,0,0,0.0
93,Chaarfutiya Chhokare,Thriller,Manish Harishankar,"Soha Ali Khan, Seema Biswas, Zakir Hussain",https://en.wikipedia.org/wiki/Chaarfutiya_Chhokare,26 September 2014 (2014-09-26),https://boxofficeindia.com/movie.php?movieid=2312,100,35000000,Maxor Movies|Wave Cinemas|,1550000,0,0,1,0,0,0,0,0,0,0,0,0,0,0,0,0,0,0,0,0,0.0
94,Desi Kattey,Drama/Action,Anand Kumar,"Suniel Shetty, Akhil Kapur, Jay Bhanushali, Sasha Agha, Tia Bajpai",https://en.wikipedia.org/wiki/Desi_Kattey,26 September 2014 (2014-09-26),https://boxofficeindia.com/movie.php?movieid=2315,1150,120000000,Anand Kumar Productions Pvt. Ltd.|Premia Group|,25200000,0,1,0,1,0,0,0,0,0,0,0,0,0,0,0,0,0,0,0,0,0.0
95,Meinu Ek Ladki Chaahiye,Social satire,Abhishek Bindal,"Raghuvir Yadav, Puru Chibber, Reecha Sinha, Zakir Hussain",https://en.wikipedia.org/wiki/Meinu_Ek_Ladki_Chaahiye,26 September 2014 (2014-09-26),https://boxofficeindia.com/movie.php?movieid=2311,125,20000000,BVM Films Pvt. Ltd.|,1550000,0,0,0,0,0,0,0,0,0,0,0,0,0,0,0,0,0,1,0,0,0.0
96,Balwinder Singh Famous Ho Gaya,Comedy,Sunil Agnihotri,"Mika Singh, Shaan, Gabriela Bertante",https://en.wikipedia.org/wiki/Balwinder_Singh_Famous_Ho_Gaya,26 September 2014 (2014-09-26),https://boxofficeindia.com/movie.php?movieid=2313,450,70000000,5 Rivers Productions|Sunil Agnihotri Productions LLP|Vandana Motion Pictures|,5700000,1,0,0,0,0,0,0,0,0,0,0,0,0,0,0,0,0,0,0,0,0.0
97,Bang Bang!,Action,Siddharth Anand,"Hrithik Roshan, Katrina Kaif, Javed Jaffrey",https://en.wikipedia.org/wiki/Bang_Bang!,2 October 2014 (2014-10-02),https://boxofficeindia.com/movie.php?movieid=2319,3250,1600000000,Fox Star Studio India Pvt. Ltd.|,1919600000,0,0,0,1,0,0,0,0,0,0,0,0,0,0,0,0,0,0,0,0,0.3783783783783784
98,Haider,Drama,Vishal Bhardwaj,"Tabu, Shahid Kapoor, Shraddha Kapoor, Kay Kay Menon",https://en.wikipedia.org/wiki/Haider_(film),2 October 2014 (2014-10-02),https://www.boxofficeindia.com/movie.php?movieid=2318,1250,480000000,UTV Motion Pictures|Vishal Bhardwaj Pictures|,655200000,0,1,0,0,0,0,0,0,0,0,0,0,0,0,0,0,0,0,0,0,0.6801346801346801
99,Jigariyaa,Romance,Raj Purohit,"Harshvardhan Deo, Cherry Mardia, Virendra Saxena, K.K. Raina, Navni Parihar, Natasha Rastogi",https://en.wikipedia.org/wiki/Jigariyaa,10 October 2014 (2014-10-10),https://boxofficeindia.com/movie.php?movieid=2322,350,60000000,Soundrya Productions|Wave Cinemas|,2700000,0,0,0,0,1,0,0,0,0,0,0,0,0,0,0,0,0,0,0,0,0.0
100,Ekkees Toppon Ki Salaami,Political Satire,Ravindra Gautam,"Anupam Kher, Neha Dhupia, Divyendu Sharma, Manu Rishi, Aditi Sharma",https://en.wikipedia.org/wiki/Ekkees_Toppon_Ki_Salaami,10 October 2014 (2014-10-10),https://boxofficeindia.com/movie.php?movieid=2324,450,75000000,Nautanki Films|Pen India Pvt. Ltd.|Shikhar Films|,19100000,0,0,0,0,0,0,0,0,0,0,0,1,0,0,0,0,0,0,0,0,0.0
101,Tamanchey,Crime/Romance,Navneet Behal,"Nikhil Dwivedi, Richa Chadda",https://en.wikipedia.org/wiki/Tamanchey,10 October 2014 (2014-10-10)[1],https://boxofficeindia.com/movie.php?movieid=2325,825,100000000,Fashion Films|Wild Elephants Motion Pictures Pvt. Ltd.|,18800000,0,0,0,0,1,0,0,1,0,0,0,0,0,0,0,0,0,0,0,0,0.0
102,Mumbai 125 KM 3D,Horror,Hemant Madhukar,"Veena Malik, Karanvir Bohra, Vedita Pratap Singh, Aparna Bajpai",https://en.wikipedia.org/wiki/Mumbai_125_KM_3D,17 October 2014 (2014-10-17)[1],https://boxofficeindia.com/movie.php?movieid=2331,1000,110000000,Light And Shadow Films Production|Shri Mahatti Media|,24500000,0,0,0,0,0,0,1,0,0,0,0,0,0,0,0,0,0,0,0,0,0.0
103,Sonali Cable,Comedy/Drama,Charudutt Acharya,"Rhea Chakraborty, Ali Fazal, Raghav Juyal, Anupam Kher, Smita Jaykar",https://en.wikipedia.org/wiki/Sonali_Cable,17 October 2014 (2014-10-17),https://boxofficeindia.com/movie.php?movieid=2330,525,77500000,Bombay Mania Production Pvt. Ltd.|Ramesh Sippy Entertainment|,11100000,1,1,0,0,0,0,0,0,0,0,0,0,0,0,0,0,0,0,0,0,0.0
104,Happy New Year,Action/Comedy,Farah Khan,"Shah Rukh Khan, Deepika Padukone, Abhishek Bachchan, Sonu Sood, Boman Irani, Vivaan Shah",https://en.wikipedia.org/wiki/Happy_New_Year_(2014_film),23 October 2014 (2014-10-23) (Dubai) 24 October 2014 (2014-10-24) (Worldwide),https://boxofficeindia.com/movie.php?movieid=2344,3850,1500000000,Red Chillies Entertainment|,2408300000,1,0,0,1,0,0,0,0,0,0,0,0,0,0,0,0,0,0,0,0,0.6875
105,Mumbai Can Dance Saala,Drama,Sachindra Sharma,"Ashima Sharma, Prashant Narayanan, Aditya Pancholi, Shakti Kapoor, Rakhi Sawant",https://en.wikipedia.org/wiki/Mumbai_Can_Dance_Saala,2 January 2015 (2015-01-02),https://boxofficeindia.com/movie.php?movieid=2486,600,35000000,Ashima Films|,3100000,0,1,0,0,0,0,0,0,0,0,0,0,0,0,0,0,0,0,0,0,0.0
106,Fireflies,Drama,Sabal Singh Sheikhawat,"Rahul Khanna, Monica Dogra, Arjun Mathur, Shivani Ghai, Aadya Bedi",https://en.wikipedia.org/wiki/Fireflies_(film),31 Oct 2014,https://boxofficeindia.com/movie.php?movieid=2355,65,17500000,Wild Geese Pictures|,900000,0,1,0,0,0,0,0,0,0,0,0,0,0,0,0,0,0,0,0,0,0.0
107,Roar - Tigers of Sunderbans,Drama/Action,Kamal Sadanah,"Abhinav Shukla, Varinder Singh Ghuman, Himarsha Venkatsamy, Achint Kaur, Nora Fatehi",https://en.wikipedia.org/wiki/Roar_(2014_film),31 October 2014 (2014-10-31),https://www.boxofficeindia.com/movie.php?movieid=2358,1250,250000000,Abis Rizvi Films|,134000000,0,1,0,1,0,0,0,0,0,0,0,0,0,0,0,0,0,0,0,0,0.0
108,Super Nani,Drama,Indra Kumar,"Rekha, Sharman Joshi, Randhir Kapoor, Shweta Kumar",https://en.wikipedia.org/wiki/Super_Nani,31 October 2014 (2014-10-31),https://boxofficeindia.com/movie.php?movieid=2359,825,180000000,Maruti International|,34300000,0,1,0,0,0,0,0,0,0,0,0,0,0,0,0,0,0,0,0,0,0.4545454545454545
109,Chaar Sahibzaade,Animation/Historical,Harry Baweja,Animated characters,https://en.wikipedia.org/wiki/Chaar_Sahibzaade,6 November 2014 (2014-11-06),https://www.boxofficeindia.com/movie.php?movieid=2377,150,100000000,Baweja Movies Pvt. Ltd.|,24900000,0,0,0,0,0,0,0,0,0,0,0,0,0,0,0,0,0,0,0,0,0.0
110,Rang Rasiya,Drama,Ketan Mehta,"Randeep Hooda, Nandana Sen, Paresh Rawal, Ashish Vidyarthi, Sachin Khedekar",https://en.wikipedia.org/wiki/Rang_Rasiya,November 2008 (2008-11) (London Film Festival) 7 November 2014 (2014-11-07) (India),https://boxofficeindia.com/movie.php?movieid=2378,600,--,Infinity Filmed Entertainment|Maya Movies|Pen India Pvt. Ltd.|,63700000,0,1,0,0,0,0,0,0,0,0,0,0,0,0,0,0,0,0,0,0,0.0
111,A Decent Arrangement,Drama,Sarovar Banka,"Shabana Azmi, Adam Laupus, Lethia Nall, Farid Currim, Shreya Sharma, Vikram Kapadia, Navniit Nisshan, Adhir Bhat",https://en.wikipedia.org/wiki/A_Decent_Arrangement,8 March 2011 (2011-03-08) (New York Indian Film Festival) 7 November 2014 (2014-11-07)[1],https://boxofficeindia.com/movie.php?movieid=2376,12,20000000,Secret Pact Productions|,275000,0,1,0,0,0,0,0,0,0,0,0,0,0,0,0,0,0,0,0,0,0.0
112,The Shaukeens,Comedy,Abhishek Sharma,"Akshay Kumar, Anupam Kher, Annu Kapoor, Lisa Haydon, Piyush Mishra",https://en.wikipedia.org/wiki/The_Shaukeens,7 November 2014 (2014-11-07),https://boxofficeindia.com/movie.php?movieid=2379,1800,410000000,Ashwin Varde Productions|Cape Of Good Films Pvt. Ltd.|Cine1 Studios|,246300000,1,0,0,0,0,0,0,0,0,0,0,0,0,0,0,0,0,0,0,0,0.5714285714285714
113,6 - 5 = 2,Found footage / Horror,Bharat Jain,"Prashanth Gupta, Niharica Raizada, Ashruth Jain, Gaurav Kothari, Disha Kapoor",https://en.wikipedia.org/wiki/6-5%3D2_Hindi,14 November 2014,https://boxofficeindia.com/movie.php?movieid=2379,1800,410000000,Ashwin Varde Productions|Cape Of Good Films Pvt. Ltd.|Cine1 Studios|,246300000,0,0,0,0,0,0,1,0,0,0,0,0,0,0,0,0,0,0,0,0,0.5714285714285714
114,Kill Dil,Romance/Drama,Shaad Ali,"Ranveer Singh, Parineeti Chopra, Ali Zafar, Govinda",https://en.wikipedia.org/wiki/Kill_Dil,14 November 2014 (2014-11-14),https://www.boxofficeindia.com/movie.php?movieid=2400,2300,400000000,Yash Raj Films|,398000000,0,1,0,0,1,0,0,0,0,0,0,0,0,0,0,0,0,0,0,0,0.5636363636363636
115,Golu Aur Pappu,Comedy,Kabir Sadanand,"Vir Das, Kunaal Roy Kapur, Shobhit Rana, Dimple Kapadia, Deepak Tijori",https://en.wikipedia.org/wiki/Gollu_Aur_Pappu,21 November 2014 (2014-11-21),https://boxofficeindia.com/movie.php?movieid=2408,15,35000000,Frog Unlimited|Tipping Point Films|Viacom 18 Motion Pictures|,65000,1,0,0,0,0,0,0,0,0,0,0,0,0,0,0,0,0,0,0,0,0.2916666666666667
116,Happy Ending,Romance/Comedy,Raj Nidimoru and Krishna DK,"Saif Ali Khan, Ileana D'Cruz, Govinda, Ranvir Shorey, Kalki Koechlin",https://en.wikipedia.org/wiki/Happy_Ending_(film),21 November 2014 (2014-11-21),https://www.boxofficeindia.com/movie.php?movieid=2410,1650,570000000,Eros International|Illuminati Films|,295800000,1,0,0,0,1,0,0,0,0,0,0,0,0,0,0,0,0,0,0,0,0.35897435897435903
117,Titoo MBA,Romance/Comedy,Amit Vats,"Nishant Dahiya, Pragya Jaiswal, Abhishek Kumar",https://en.wikipedia.org/wiki/Titoo_MBA,21 November 2014 (2014-11-21)[1],https://boxofficeindia.com/movie.php?movieid=2409,150,25000000,Batra Showbiz|Beatrix Entertainment|Kapil Batra Production|,1400000,1,0,0,0,1,0,0,0,0,0,0,0,0,0,0,0,0,0,0,0,0.0
118,Wah Taj,Drama,Ajit Sinha,"Shreyas Talpade, Manjari Fadnis, Hemant Pandey, Rajesh Sharma, Vishwajeet Pradhan, Rakesh Shrivastav",https://en.wikipedia.org/wiki/Wah_Taj,23 September 2016 (2016-09-23),https://boxofficeindia.com/movie.php?movieid=3386,150,--,Pen India Pvt. Ltd.|Pun Films Pvt. Ltd.|Spyderwave Films|,1925000,0,1,0,0,0,0,0,0,0,0,0,0,0,0,0,0,0,0,0,0,0.0
119,Hum Hai Teen Khurafaati,Comedy,Rajeshwar Chauhan,"Heena Panchal, Mausam Sharma, Pranshu Kaushal, Shrey Chhabra, Vrajesh Hirjee, Hemant Pandey, Razzak Khan, Brijendra Kala, Manoj Bakshi",https://en.wikipedia.org/wiki/Hum_Hai_Teen_Khurafaati,28 November 2014 (2014-11-28) (India),https://boxofficeindia.com/movie.php?movieid=2436,25,--,Shape Entertainment Pvt. Ltd.|,750000,1,0,0,0,0,0,0,0,0,0,0,0,0,0,0,0,0,0,0,0,0.0
120,Ungli,Drama,Rensil D'Silva,"Emraan Hashmi, Randeep Hooda, Kangana Ranaut, Neil Bhoopalam, Angad Bedi, Sanjay Dutt",https://en.wikipedia.org/wiki/Ungli,28 November 2014 (2014-11-28),https://boxofficeindia.com/movie.php?movieid=2439,1800,390000000,Dharma Productions Pvt. Ltd.|,219400000,0,1,0,0,0,0,0,0,0,0,0,0,0,0,0,0,0,0,0,0,0.6764705882352942
121,Zed Plus,Drama,Chandraprakash Dwivedi,"Adil Hussain, Mona Singh, Mukesh Tiwari, Sanjay Mishra, Kulbhushan Kharbanda, Rahul Singh, Shivani Tanksale, K K Raina, Ekavali Khanna, Anil Rastogi",https://en.wikipedia.org/wiki/Zed_Plus,28 November 2014 (2014-11-28),https://boxofficeindia.com/movie.php?movieid=2437,350,55000000,Mukund Purohit Production Pvt. Ltd.|Wide Angle Media Pvt. Ltd.|,7700000,0,1,0,0,0,0,0,0,0,0,0,0,0,0,0,0,0,0,0,0,0.0
122,Zid,Erotica/Thriller,Vivek Agnihotri,"Karanvir Sharma, Barbie Handa, Shraddha Das",https://en.wikipedia.org/wiki/Zid_(2014_film),28 November 2014 (2014-11-28)[1],https://www.boxofficeindia.com/movie.php?movieid=3186,40,7500000,Prathima Films|,7900000,0,0,1,0,0,0,0,0,0,0,0,0,0,0,0,0,0,0,0,0,0.0
123,Action Jackson,Comedy,Prabhu Deva,"Ajay Devgn, Sonakshi Sinha, Yami Gautam, Manasvi Mamgai, Sonu Sood, Kunaal Roy Kapur",https://en.wikipedia.org/wiki/Action_Jackson_(2014_film),5 December 2014 (2014-12-05),https://boxofficeindia.com/movie.php?movieid=2470,3350,930000000,Baba Arts Limited|Eros International|,789300000,1,0,0,0,0,0,0,0,0,0,0,0,0,0,0,0,0,0,0,0,0.35897435897435903
124,Bhopal: A Prayer for Rain,Drama,Ravi Kumar,"Martin Sheen, Mischa Barton, Rajpal Yadav, Tannishtha Chatterjee, Akhil Mishra, Fagun Thakrar, Joy Sengupta, Kal Penn, Martin Brambach, David Brooks, Vineet Kumar, Satish Kaushik, Vasanth Santosham, Manoj Joshi",https://en.wikipedia.org/wiki/Bhopal:_A_Prayer_for_Rain,7 November 2014 (2014-11-07) (US) 5 December 2014 (2014-12-05) (India),https://www.boxofficeindia.com/movie.php?movieid=2469,375,--,Rising Star Entertainment|Sahara One Motion Pictures|,15500000,0,1,0,0,0,0,0,0,0,0,0,0,0,0,0,0,0,0,0,0,0.0
125,Mumbai Delhi Mumbai,Drama,Satish Rajwade,"Shiv Pandit, Piaa Bajpai",https://en.wikipedia.org/wiki/Mumbai_Delhi_Mumbai,5 December 2014 (2014-12-05),https://boxofficeindia.com/movie.php?movieid=2468,10,--,Viacom 18 Motion Pictures|,100000,0,1,0,0,0,0,0,0,0,0,0,0,0,0,0,0,0,0,0,0,0.2916666666666667
126,Sulemani Keeda,Social/Drama,Amit Masurkar,"Naveen Kasturia, Mayank Tewari, Aditi Vasudev",https://en.wikipedia.org/wiki/Sulemani_Keeda_(film),5 December 2014 (2014-12-05),https://boxofficeindia.com/movie.php?movieid=2467,45,3500000,Mantra / Runaway Entertainment|Tulsea Pictures|,3325000,0,1,0,0,0,0,0,0,0,0,0,0,0,0,0,0,0,1,0,0,0.0
127,Take It Easy,Drama,Sunil Prem Vyas,"Vikram Gokhale, Dipannita Sharma, Raj Zutshi, Anang Desai, Joy Sengupta, Sulbha Arya, Vijay Kashyap, Supriya Karnik, Jyoti Gauba, Yash Ghanekar, Prasad Reddy, Smera Jadhav",https://en.wikipedia.org/wiki/Take_It_Easy_(2015_film),2 January 2015 (2015-01-02),https://boxofficeindia.com/movie.php?movieid=2485,350,22500000,Prince Productions|,5100000,0,1,0,0,0,0,0,0,0,0,0,0,0,0,0,0,0,0,0,0,0.0
128,Badlapur Boys,Sports,Shailesh Verma,"Shashank Udapurkar, Annu Kapoor, Anupam Maanav, Kishori Shahane, Aman Verma, Saranya Mohan",https://en.wikipedia.org/wiki/Badlapur_Boys,12 December 2014 (2014-12-12),https://boxofficeindia.com/movie.php?movieid=2477,575,70000000,Karrm Movies|,10900000,0,0,0,0,0,0,0,0,0,0,0,0,1,0,0,0,0,0,0,0,0.0
129,Life Mein Twist Hai,Drama/Romance,Dinesh Soni,Shyam Avtar Kedia,https://en.wikipedia.org/wiki/Life_Mein_Twist_Hai,12 December 2014 (2014-12-12),https://www.boxofficeindia.com/movie.php?movieid=2475,30,--,Jai Sairam Movies|Shree Shyam Entertainment|,170000,0,1,0,0,1,0,0,0,0,0,0,0,0,0,0,0,0,0,0,0,0.0
130,Main Aur Mr. Riight,Comedy/Romance,Adeeb Rais,"Varun Khandelwal, Danny Saru, Shenaz Treasuryvala, Barun Sobti, Kavi Shastri, Maia Sethna, Anagha Mane, Neha Gosain",https://en.wikipedia.org/wiki/Main_Aur_Mr._Riight,12 December 2014 (2014-12-12),https://boxofficeindia.com/movie-story.php?movieid=2476,300,42500000,Madmidaas Films|,3900000,1,0,0,0,1,0,0,0,0,0,0,0,0,0,0,0,0,0,0,0,0.0
131,Objection My God,Comedy,Amit Khan,"Makrand Deshpande, Sanjay Mishra, Rajesh Khattar, Zarina Wahab",https://en.wikipedia.org/w/index.php?title=Objection_My_God&action=edit&redlink=1,0,https://boxofficeindia.com/movie.php?movieid=1142,1200,250000000,Grazing Goat Pictures Pvt. Ltd.|Playtime Creationn|S. Spice Studios|Viacom 18 Motion Pictures|,1113400000,1,0,0,0,0,0,0,0,0,0,0,0,0,0,0,0,0,0,0,0,0.2916666666666667
132,Room - The Mystery,Suspense/Thriller,Faizal Khan,"Atif Jamil, Ibra Khan, Roselyn Dsouza, Eshu Gambhir, Himir Gandhi, Rohit Juneja, Shashwita Sharma",https://en.wikipedia.org/wiki/Room_-_The_Mystery,12 December 2014,https://boxofficeindia.com/movie.php?movieid=2747,50,--,India E - Commerce Ltd.|Pen n Camera International|,950000,0,0,1,0,0,0,0,0,0,0,0,0,0,0,0,0,0,0,0,0,0.0
133,PK,Comedy/Drama,Rajkumar Hirani,"Aamir Khan, Anushka Sharma, Sushant Singh Rajput, Sanjay Dutt, Ram Sethi, Boman Irani",https://en.wikipedia.org/wiki/PK_(film),19 December 2014 (2014-12-19),https://boxofficeindia.com/movie.php?movieid=2482,3600,1220000000,Rajkumar Hirani Films|UTV Motion Pictures|Vidhu Vinod Chopra Productions|,4487400000,1,1,0,0,0,0,0,0,0,0,0,0,0,0,0,0,0,0,0,0,0.9074074074074074
134,Lingaa,Action/Thriller,K.S. Ravikumar,"Rajinikanth, Sonakshi Sinha, Jagapathi Babu, Anushka Shetty, Dev Gill, Santhanam, Karunakaran, Brahmanandam, Radha Ravi, Vijayakumar, K Vishwanath, Manobala, Illavarasu",https://en.wikipedia.org/wiki/Lingaa,12 December 2014 (2014-12-12) [2],https://boxofficeindia.com/movie.php?movieid=2470,3350,930000000,Baba Arts Limited|Eros International|,789300000,0,0,1,1,0,0,0,0,0,0,0,0,0,0,0,0,0,0,0,0,0.35897435897435903
135,Ugly,Thriller,Anurag Kashyap,"Abir Goswami, Girish Kulkarni, Madhavi Singh, Ronit Roy, Anshikaa Shrivastava, Rahul Bhat, Tejaswini Kolhapure, Sandesh Jadhav",https://en.wikipedia.org/wiki/Ugly_(film),24 May 2013 (2013-05-24) (Cannes) 26 December 2014 (2014-12-26) (India),https://boxofficeindia.com/movie.php?movieid=2484,350,65000000,Dar Motion Pictures|Phantom Films|,83400000,0,0,1,0,0,0,0,0,0,0,0,0,0,0,0,0,0,0,0,0,0.2857142857142857
